EESchema Schematic File Version 4
LIBS:DisplayControlPCA_60112-cache
EELAYER 29 0
EELAYER END
$Descr A4 11693 8268
encoding utf-8
Sheet 11 17
Title ""
Date ""
Rev ""
Comp ""
Comment1 ""
Comment2 ""
Comment3 ""
Comment4 ""
$EndDescr
$Comp
L sm4rpq:264X_Bus_Conn_(P1) P1
U 1 1 5F40FFFA
P 5550 3550
F 0 "P1" H 5525 4825 50  0000 C CNN
F 1 "264X_Bus_Conn_(P1)" H 5525 4734 50  0000 C CNN
F 2 "sm4rpq:264X_BUS" H 5150 3650 50  0001 C CNN
F 3 "" H 5150 3650 50  0001 C CNN
	1    5550 3550
	1    0    0    -1  
$EndComp
$Comp
L power:VCC #PWR0119
U 1 1 5F4104C9
P 4900 2500
F 0 "#PWR0119" H 4900 2350 50  0001 C CNN
F 1 "VCC" V 4918 2627 50  0000 L CNN
F 2 "" H 4900 2500 50  0001 C CNN
F 3 "" H 4900 2500 50  0001 C CNN
	1    4900 2500
	0    -1   -1   0   
$EndComp
$Comp
L power:GND #PWR0120
U 1 1 5F410B56
P 6150 2500
F 0 "#PWR0120" H 6150 2250 50  0001 C CNN
F 1 "GND" V 6155 2372 50  0000 R CNN
F 2 "" H 6150 2500 50  0001 C CNN
F 3 "" H 6150 2500 50  0001 C CNN
	1    6150 2500
	0    -1   -1   0   
$EndComp
$Comp
L power:GND #PWR0121
U 1 1 5F41128E
P 4900 4600
F 0 "#PWR0121" H 4900 4350 50  0001 C CNN
F 1 "GND" V 4905 4472 50  0000 R CNN
F 2 "" H 4900 4600 50  0001 C CNN
F 3 "" H 4900 4600 50  0001 C CNN
	1    4900 4600
	0    1    1    0   
$EndComp
$Comp
L power:GND #PWR0122
U 1 1 5F411A85
P 4900 2600
F 0 "#PWR0122" H 4900 2350 50  0001 C CNN
F 1 "GND" V 4905 2472 50  0000 R CNN
F 2 "" H 4900 2600 50  0001 C CNN
F 3 "" H 4900 2600 50  0001 C CNN
	1    4900 2600
	0    1    1    0   
$EndComp
NoConn ~ 4900 2700
NoConn ~ 4900 2800
NoConn ~ 4900 2900
NoConn ~ 4900 3000
NoConn ~ 4900 3100
NoConn ~ 4900 3200
NoConn ~ 4900 3500
NoConn ~ 4900 3600
NoConn ~ 4900 3700
NoConn ~ 4900 4100
NoConn ~ 4900 4200
NoConn ~ 4900 4300
NoConn ~ 4900 4400
NoConn ~ 6150 2600
NoConn ~ 6150 2700
NoConn ~ 6150 3400
NoConn ~ 6150 3500
NoConn ~ 6150 3800
NoConn ~ 6150 3900
NoConn ~ 6150 4200
NoConn ~ 6150 4300
NoConn ~ 6150 4400
NoConn ~ 6150 4600
Text GLabel 4900 3300 0    50   Output ~ 0
~ADDR4~
Text GLabel 4900 3400 0    50   Output ~ 0
~ADDR5~
Text GLabel 4900 3800 0    50   Output ~ 0
~ADDR9~
Text GLabel 4900 3900 0    50   Output ~ 0
~ADDR10~
Text GLabel 4900 4000 0    50   Output ~ 0
~ADDR11~
Text GLabel 4900 4500 0    50   Output ~ 0
~IO~
Text GLabel 6150 2900 2    50   Output ~ 0
~BUS0~
Text GLabel 6150 3000 2    50   Output ~ 0
~BUS1~
Text GLabel 6150 3100 2    50   Output ~ 0
~BUS2~
Text GLabel 6150 3300 2    50   Output ~ 0
~BUS4~
Text GLabel 6150 3200 2    50   Output ~ 0
~BUS3~
Text GLabel 6150 3600 2    50   Output ~ 0
~BUS7~
Text GLabel 6150 4500 2    50   Output ~ 0
~REQ~
Text GLabel 6150 4000 2    50   Output ~ 0
PRIOR_IN
Text GLabel 6150 4100 2    50   Input ~ 0
PRIOR_OUT
Text GLabel 6150 3700 2    50   Output ~ 0
~WRITE~
Text GLabel 6150 2800 2    50   Output ~ 0
PWR_ON
$Comp
L power:PWR_FLAG #FLG0101
U 1 1 5F7F92C1
P 4900 2500
F 0 "#FLG0101" H 4900 2575 50  0001 C CNN
F 1 "PWR_FLAG" H 4900 2673 50  0000 C CNN
F 2 "" H 4900 2500 50  0001 C CNN
F 3 "~" H 4900 2500 50  0001 C CNN
	1    4900 2500
	1    0    0    -1  
$EndComp
Connection ~ 4900 2500
$Comp
L power:PWR_FLAG #FLG0102
U 1 1 5F7F9649
P 6150 2500
F 0 "#FLG0102" H 6150 2575 50  0001 C CNN
F 1 "PWR_FLAG" H 6150 2673 50  0000 C CNN
F 2 "" H 6150 2500 50  0001 C CNN
F 3 "~" H 6150 2500 50  0001 C CNN
	1    6150 2500
	1    0    0    -1  
$EndComp
Connection ~ 6150 2500
$EndSCHEMATC
