EESchema Schematic File Version 4
LIBS:DisplayControlPCA_60112-cache
EELAYER 29 0
EELAYER END
$Descr A4 11693 8268
encoding utf-8
Sheet 16 17
Title ""
Date ""
Rev ""
Comp ""
Comment1 ""
Comment2 ""
Comment3 ""
Comment4 ""
$EndDescr
$Comp
L sm4rpq:27S82 XU28
U 1 1 5F438D34
P 4200 3300
F 0 "XU28" H 3950 4200 50  0000 C CNN
F 1 "27S82" H 4300 4200 50  0000 C CNN
F 2 "Package_DIP:DIP-24_W15.24mm_Socket_LongPads" H 4300 3100 50  0001 C CNN
F 3 "" H 4150 3100 50  0001 C CNN
	1    4200 3300
	1    0    0    -1  
$EndComp
$Comp
L sm4rpq:27S82 XU310
U 1 1 5F4396B1
P 7250 3300
F 0 "XU310" H 7000 4200 50  0000 C CNN
F 1 "27S82" H 7400 4200 50  0000 C CNN
F 2 "Package_DIP:DIP-24_W15.24mm_Socket_LongPads" H 7350 3100 50  0001 C CNN
F 3 "" H 7200 3100 50  0001 C CNN
	1    7250 3300
	1    0    0    -1  
$EndComp
$Comp
L power:VCC #PWR0172
U 1 1 5F441C81
P 4150 2350
F 0 "#PWR0172" H 4150 2200 50  0001 C CNN
F 1 "VCC" H 4167 2523 50  0000 C CNN
F 2 "" H 4150 2350 50  0001 C CNN
F 3 "" H 4150 2350 50  0001 C CNN
	1    4150 2350
	1    0    0    -1  
$EndComp
$Comp
L power:VCC #PWR0173
U 1 1 5F4424C5
P 7200 2350
F 0 "#PWR0173" H 7200 2200 50  0001 C CNN
F 1 "VCC" H 7217 2523 50  0000 C CNN
F 2 "" H 7200 2350 50  0001 C CNN
F 3 "" H 7200 2350 50  0001 C CNN
	1    7200 2350
	1    0    0    -1  
$EndComp
$Comp
L power:GND #PWR0174
U 1 1 5F442A1C
P 4150 4450
F 0 "#PWR0174" H 4150 4200 50  0001 C CNN
F 1 "GND" H 4155 4277 50  0000 C CNN
F 2 "" H 4150 4450 50  0001 C CNN
F 3 "" H 4150 4450 50  0001 C CNN
	1    4150 4450
	1    0    0    -1  
$EndComp
$Comp
L power:GND #PWR0175
U 1 1 5F442ED2
P 7200 4450
F 0 "#PWR0175" H 7200 4200 50  0001 C CNN
F 1 "GND" H 7205 4277 50  0000 C CNN
F 2 "" H 7200 4450 50  0001 C CNN
F 3 "" H 7200 4450 50  0001 C CNN
	1    7200 4450
	1    0    0    -1  
$EndComp
Wire Wire Line
	4550 3250 4650 3250
Wire Wire Line
	4650 3250 4650 5450
Wire Wire Line
	4650 5450 7700 5450
Wire Wire Line
	4550 3150 4750 3150
Wire Wire Line
	4750 3150 4750 5350
Wire Wire Line
	4750 5350 7800 5350
Wire Wire Line
	7600 3250 7700 3250
Wire Wire Line
	7700 3250 7700 5450
Connection ~ 7700 5450
Wire Wire Line
	7700 5450 9550 5450
Wire Wire Line
	7600 3150 7800 3150
Wire Wire Line
	7800 3150 7800 5350
Connection ~ 7800 5350
Wire Wire Line
	7800 5350 9550 5350
Wire Wire Line
	7600 3050 7900 3050
Wire Wire Line
	7900 3050 7900 5250
Wire Wire Line
	7600 2950 8000 2950
Wire Wire Line
	8000 2950 8000 5150
Wire Wire Line
	7600 2850 8100 2850
Wire Wire Line
	8100 2850 8100 5050
Wire Wire Line
	7600 2750 8200 2750
Wire Wire Line
	8200 2750 8200 4950
Wire Wire Line
	7600 2650 8300 2650
Wire Wire Line
	8300 2650 8300 4850
Wire Wire Line
	7600 2550 8400 2550
Wire Wire Line
	8400 2550 8400 4750
Wire Wire Line
	4550 3050 4850 3050
Wire Wire Line
	4850 3050 4850 5250
Wire Wire Line
	4550 2950 4950 2950
Wire Wire Line
	4950 2950 4950 5150
Wire Wire Line
	4550 2850 5050 2850
Wire Wire Line
	5050 2850 5050 5050
Wire Wire Line
	4550 2750 5150 2750
Wire Wire Line
	5150 2750 5150 4950
Wire Wire Line
	4550 2650 5250 2650
Wire Wire Line
	5250 2650 5250 4850
Wire Wire Line
	4550 2550 5350 2550
Wire Wire Line
	5350 2550 5350 4750
Wire Wire Line
	5350 4750 8400 4750
Connection ~ 8400 4750
Wire Wire Line
	8400 4750 9550 4750
Wire Wire Line
	5250 4850 8300 4850
Connection ~ 8300 4850
Wire Wire Line
	8300 4850 9550 4850
Wire Wire Line
	5150 4950 8200 4950
Connection ~ 8200 4950
Wire Wire Line
	8200 4950 9550 4950
Wire Wire Line
	5050 5050 8100 5050
Connection ~ 8100 5050
Wire Wire Line
	8100 5050 9550 5050
Wire Wire Line
	4950 5150 8000 5150
Connection ~ 8000 5150
Wire Wire Line
	8000 5150 9550 5150
Wire Wire Line
	4850 5250 7900 5250
Connection ~ 7900 5250
Wire Wire Line
	7900 5250 9550 5250
Wire Wire Line
	3750 3450 2750 3450
Wire Wire Line
	3750 2550 3650 2550
Wire Wire Line
	3650 2550 3650 1100
Wire Wire Line
	3550 2650 3750 2650
Wire Wire Line
	3750 2750 3450 2750
Wire Wire Line
	3750 2850 3350 2850
Wire Wire Line
	3750 2950 3250 2950
Wire Wire Line
	3750 3050 3150 3050
Wire Wire Line
	3750 3150 3050 3150
Wire Wire Line
	3750 3250 2950 3250
Wire Wire Line
	3750 3350 2850 3350
Wire Wire Line
	2750 3450 2750 2000
Wire Wire Line
	2850 3350 2850 1900
Wire Wire Line
	2950 3250 2950 1800
Wire Wire Line
	3050 1700 3050 3150
Wire Wire Line
	3150 3050 3150 1600
Wire Wire Line
	3250 2950 3250 1500
Wire Wire Line
	3350 2850 3350 1400
Wire Wire Line
	3450 2750 3450 1300
Wire Wire Line
	3550 2650 3550 1200
Wire Wire Line
	6800 3450 5800 3450
Wire Wire Line
	6800 2550 6700 2550
Wire Wire Line
	6700 2550 6700 1100
Wire Wire Line
	6600 2650 6800 2650
Wire Wire Line
	6800 2750 6500 2750
Wire Wire Line
	6800 2850 6400 2850
Wire Wire Line
	6800 2950 6300 2950
Wire Wire Line
	6800 3050 6200 3050
Wire Wire Line
	6800 3150 6100 3150
Wire Wire Line
	6800 3250 6000 3250
Wire Wire Line
	6800 3350 5900 3350
Wire Wire Line
	5800 3450 5800 2000
Wire Wire Line
	5900 3350 5900 1900
Wire Wire Line
	6000 3250 6000 1800
Wire Wire Line
	6100 1700 6100 3150
Wire Wire Line
	6200 3050 6200 1600
Wire Wire Line
	6300 2950 6300 1500
Wire Wire Line
	6400 2850 6400 1400
Wire Wire Line
	6500 2750 6500 1300
Wire Wire Line
	6600 2650 6600 1200
Wire Wire Line
	6700 1100 3650 1100
Connection ~ 3650 1100
Wire Wire Line
	3650 1100 1800 1100
Wire Wire Line
	6600 1200 3550 1200
Connection ~ 3550 1200
Wire Wire Line
	3550 1200 1800 1200
Wire Wire Line
	6500 1300 3450 1300
Connection ~ 3450 1300
Wire Wire Line
	3450 1300 1800 1300
Wire Wire Line
	6400 1400 3350 1400
Connection ~ 3350 1400
Wire Wire Line
	3350 1400 1800 1400
Wire Wire Line
	6300 1500 3250 1500
Connection ~ 3250 1500
Wire Wire Line
	3250 1500 1800 1500
Wire Wire Line
	6200 1600 3150 1600
Connection ~ 3150 1600
Wire Wire Line
	3150 1600 1800 1600
Wire Wire Line
	6100 1700 3050 1700
Connection ~ 3050 1700
Wire Wire Line
	3050 1700 1800 1700
Connection ~ 2950 1800
Wire Wire Line
	2950 1800 6000 1800
Wire Wire Line
	5900 1900 2850 1900
Connection ~ 2850 1900
Wire Wire Line
	2850 1900 1800 1900
Wire Wire Line
	5800 2000 2750 2000
Connection ~ 2750 2000
Wire Wire Line
	2750 2000 1800 2000
Wire Wire Line
	1800 1800 2950 1800
$Comp
L power:GND #PWR0176
U 1 1 5F490DA0
P 3650 4050
F 0 "#PWR0176" H 3650 3800 50  0001 C CNN
F 1 "GND" H 3655 3877 50  0000 C CNN
F 2 "" H 3650 4050 50  0001 C CNN
F 3 "" H 3650 4050 50  0001 C CNN
	1    3650 4050
	1    0    0    -1  
$EndComp
$Comp
L power:GND #PWR0177
U 1 1 5F4910B3
P 6700 4050
F 0 "#PWR0177" H 6700 3800 50  0001 C CNN
F 1 "GND" H 6705 3877 50  0000 C CNN
F 2 "" H 6700 4050 50  0001 C CNN
F 3 "" H 6700 4050 50  0001 C CNN
	1    6700 4050
	1    0    0    -1  
$EndComp
Wire Wire Line
	6800 3950 6700 3950
Wire Wire Line
	6700 3950 6700 4050
Wire Wire Line
	3750 3950 3650 3950
Wire Wire Line
	3650 3950 3650 4050
Wire Wire Line
	3750 3750 3550 3750
Wire Wire Line
	3550 3750 3550 5550
Wire Wire Line
	3550 5550 1800 5550
Wire Wire Line
	3550 5550 6600 5550
Wire Wire Line
	6600 5550 6600 3750
Wire Wire Line
	6600 3750 6800 3750
Connection ~ 3550 5550
Wire Wire Line
	3750 3850 1800 3850
Wire Wire Line
	6800 3850 6500 3850
Wire Wire Line
	6500 3850 6500 5650
Wire Wire Line
	6500 5650 1800 5650
Text HLabel 1800 1100 0    50   Input ~ 0
A0
Text HLabel 1800 1200 0    50   Input ~ 0
A1
Text HLabel 1800 1300 0    50   Input ~ 0
A2
Text HLabel 1800 1400 0    50   Input ~ 0
A3
Text HLabel 1800 1500 0    50   Input ~ 0
A4
Text HLabel 1800 1600 0    50   Input ~ 0
A5
Text HLabel 1800 1700 0    50   Input ~ 0
A6
Text HLabel 1800 1800 0    50   Input ~ 0
A7
Text HLabel 1800 1900 0    50   Input ~ 0
A8
Text HLabel 1800 2000 0    50   Input ~ 0
A9
Text HLabel 1800 5550 0    50   Input ~ 0
~CHARSET0~
Text HLabel 1800 3850 0    50   Input ~ 0
~LCSEL~
Text HLabel 1800 5650 0    50   Input ~ 0
~UCSEL~
Text HLabel 9550 4750 2    50   Output ~ 0
~DBIT0~
Text HLabel 9550 4850 2    50   Output ~ 0
~DBIT1~
Text HLabel 9550 4950 2    50   Output ~ 0
~DBIT2~
Text HLabel 9550 5050 2    50   Output ~ 0
~DBIT3~
Text HLabel 9550 5150 2    50   Output ~ 0
~DBIT4~
Text HLabel 9550 5250 2    50   Output ~ 0
~DBIT5~
Text HLabel 9550 5350 2    50   Output ~ 0
~DBIT6~
Text HLabel 9550 5450 2    50   Output ~ 0
~DBIT7~
$EndSCHEMATC
