EESchema Schematic File Version 4
LIBS:DisplayControlPCA_60112-cache
EELAYER 29 0
EELAYER END
$Descr A4 11693 8268
encoding utf-8
Sheet 8 17
Title ""
Date ""
Rev ""
Comp ""
Comment1 ""
Comment2 ""
Comment3 ""
Comment4 ""
$EndDescr
$Comp
L 74xx:74LS32 U46
U 2 1 5F414DBE
P 3300 2500
F 0 "U46" H 3300 2700 50  0000 C CNN
F 1 "74LS32" H 3300 2300 50  0000 C CNN
F 2 "Package_DIP:DIP-14_W7.62mm_LongPads" H 3300 2500 50  0001 C CNN
F 3 "http://www.ti.com/lit/gpn/sn74LS32" H 3300 2500 50  0001 C CNN
	2    3300 2500
	1    0    0    -1  
$EndComp
$Comp
L 74xx:74LS08 U36
U 2 1 5F41605E
P 3300 3900
F 0 "U36" H 3300 3700 50  0000 C CNN
F 1 "74LS08" H 3300 4100 50  0000 C CNN
F 2 "Package_DIP:DIP-14_W7.62mm_LongPads" H 3300 3900 50  0001 C CNN
F 3 "http://www.ti.com/lit/gpn/sn74LS08" H 3300 3900 50  0001 C CNN
	2    3300 3900
	1    0    0    1   
$EndComp
$Comp
L 74xx:74LS08 U36
U 4 1 5F41701B
P 4300 2850
F 0 "U36" H 4300 3050 50  0000 C CNN
F 1 "74LS08" H 4300 2650 50  0000 C CNN
F 2 "Package_DIP:DIP-14_W7.62mm_LongPads" H 4300 2850 50  0001 C CNN
F 3 "http://www.ti.com/lit/gpn/sn74LS08" H 4300 2850 50  0001 C CNN
	4    4300 2850
	1    0    0    -1  
$EndComp
$Comp
L 74xx:74LS32 U46
U 1 1 5F4185E6
P 5600 4250
F 0 "U46" H 5600 4050 50  0000 C CNN
F 1 "74LS32" H 5600 4450 50  0000 C CNN
F 2 "Package_DIP:DIP-14_W7.62mm_LongPads" H 5600 4250 50  0001 C CNN
F 3 "http://www.ti.com/lit/gpn/sn74LS32" H 5600 4250 50  0001 C CNN
	1    5600 4250
	1    0    0    1   
$EndComp
$Comp
L 74xx:74LS27 U34
U 1 2 5F41987C
P 4300 4600
F 0 "U34" H 4300 4800 50  0000 C CNN
F 1 "74LS27" H 4350 4400 50  0000 C CNN
F 2 "Package_DIP:DIP-14_W7.62mm_LongPads" H 4300 4600 50  0001 C CNN
F 3 "http://www.ti.com/lit/gpn/sn74LS27" H 4300 4600 50  0001 C CNN
	1    4300 4600
	1    0    0    -1  
$EndComp
Wire Wire Line
	3600 2500 3800 2500
Wire Wire Line
	3800 2500 3800 2750
Wire Wire Line
	3800 2750 4000 2750
Wire Wire Line
	3600 3200 3800 3200
Wire Wire Line
	3800 3200 3800 2950
Wire Wire Line
	3800 2950 4000 2950
Wire Wire Line
	5300 2850 5200 2850
Wire Wire Line
	5300 3050 5200 3050
Wire Wire Line
	5200 3050 5200 2850
Connection ~ 5200 2850
Wire Wire Line
	5200 2850 4600 2850
Wire Wire Line
	4600 4600 4950 4600
Wire Wire Line
	4950 4600 4950 4350
Wire Wire Line
	4950 4350 5300 4350
Wire Wire Line
	5300 4150 4950 4150
Wire Wire Line
	4950 4150 4950 3900
Wire Wire Line
	3600 3900 4950 3900
Wire Wire Line
	2800 2400 2800 3100
Wire Wire Line
	2800 3100 3000 3100
Wire Wire Line
	2800 2400 3000 2400
Wire Wire Line
	2800 3100 2800 3800
Wire Wire Line
	2800 3800 3000 3800
Connection ~ 2800 3100
Wire Wire Line
	2800 3800 2800 4500
Wire Wire Line
	2800 4500 4000 4500
Connection ~ 2800 3800
Wire Wire Line
	3000 3300 2900 3300
Wire Wire Line
	2900 3300 2900 2600
Wire Wire Line
	2900 2600 3000 2600
Text HLabel 2000 3100 0    50   Input ~ 0
~BIT5~
Text HLabel 2000 4600 0    50   Input ~ 0
~BIT6~
Text HLabel 2000 3300 0    50   Input ~ 0
BIT6
Wire Wire Line
	4000 4600 2900 4600
Wire Wire Line
	2000 3100 2800 3100
Wire Wire Line
	2900 3300 2000 3300
Connection ~ 2900 3300
Text HLabel 6450 2950 2    50   Output ~ 0
~LCSEL~
Text HLabel 6450 4250 2    50   Output ~ 0
~UCSEL~
Wire Wire Line
	5900 2950 6450 2950
Wire Wire Line
	5900 4250 6450 4250
$Comp
L Connector:Conn_01x02_Male W1
U 1 1 5F42D2A4
P 4200 5250
F 0 "W1" H 4172 5132 50  0000 R CNN
F 1 "Conn_01x02_Male" H 4172 5223 50  0000 R CNN
F 2 "Connector_PinHeader_2.54mm:PinHeader_1x02_P2.54mm_Vertical" H 4200 5250 50  0001 C CNN
F 3 "~" H 4200 5250 50  0001 C CNN
	1    4200 5250
	-1   0    0    1   
$EndComp
Wire Wire Line
	4000 5050 4000 5150
Text GLabel 3800 5350 3    50   Input ~ 0
R1E
Wire Wire Line
	3800 5050 3800 5350
Wire Wire Line
	4000 5250 4000 5350
$Comp
L power:GND #PWR0113
U 1 1 5F4334DB
P 4000 5350
F 0 "#PWR0113" H 4000 5100 50  0001 C CNN
F 1 "GND" H 4005 5177 50  0000 C CNN
F 2 "" H 4000 5350 50  0001 C CNN
F 3 "" H 4000 5350 50  0001 C CNN
	1    4000 5350
	1    0    0    -1  
$EndComp
Wire Wire Line
	3800 5050 3900 5050
Wire Wire Line
	3000 4000 2900 4000
Wire Wire Line
	2900 4000 2900 4600
Connection ~ 2900 4600
Wire Wire Line
	2900 4600 2000 4600
Wire Wire Line
	4000 4700 3900 4700
Wire Wire Line
	3900 4700 3900 5050
Connection ~ 3900 5050
Wire Wire Line
	3900 5050 4000 5050
$Comp
L 74xx:74LS00 U37
U 4 1 5F43A03A
P 3300 3200
F 0 "U37" H 3300 3000 50  0000 C CNN
F 1 "74S00" H 3300 3400 50  0000 C CNN
F 2 "Package_DIP:DIP-14_W7.62mm_LongPads" H 3300 3200 50  0001 C CNN
F 3 "http://www.ti.com/lit/gpn/sn74ls00" H 3300 3200 50  0001 C CNN
	4    3300 3200
	1    0    0    1   
$EndComp
$Comp
L 74xx:74LS00 U37
U 1 1 5F43C05C
P 5600 2950
F 0 "U37" H 5600 3150 50  0000 C CNN
F 1 "74S00" H 5600 2750 50  0000 C CNN
F 2 "Package_DIP:DIP-14_W7.62mm_LongPads" H 5600 2950 50  0001 C CNN
F 3 "http://www.ti.com/lit/gpn/sn74ls00" H 5600 2950 50  0001 C CNN
	1    5600 2950
	1    0    0    -1  
$EndComp
$Comp
L 74xx:74LS00 U23
U 1 1 5F64B034
P 3300 1450
F 0 "U23" H 3300 1775 50  0000 C CNN
F 1 "74LS00" H 3300 1684 50  0000 C CNN
F 2 "Package_DIP:DIP-14_W7.62mm_LongPads" H 3300 1450 50  0001 C CNN
F 3 "http://www.ti.com/lit/gpn/sn74ls00" H 3300 1450 50  0001 C CNN
	1    3300 1450
	1    0    0    -1  
$EndComp
Wire Wire Line
	3000 1350 2000 1350
Wire Wire Line
	2000 1550 3000 1550
Wire Wire Line
	3600 1450 6450 1450
Text HLabel 2000 1350 0    50   Input ~ 0
~BSS0
Text HLabel 2000 1550 0    50   Input ~ 0
~BSS1
Text HLabel 6450 1450 2    50   Output ~ 0
~E1~
$EndSCHEMATC
