EESchema Schematic File Version 4
LIBS:DisplayControlPCA_60112-cache
EELAYER 29 0
EELAYER END
$Descr A4 11693 8268
encoding utf-8
Sheet 6 17
Title ""
Date ""
Rev ""
Comp ""
Comment1 ""
Comment2 ""
Comment3 ""
Comment4 ""
$EndDescr
$Comp
L 74xx:74LS10 U47
U 3 1 5F462A6B
P 3300 1300
F 0 "U47" H 3250 1500 50  0000 C CNN
F 1 "74S10" H 3300 1100 50  0000 C CNN
F 2 "Package_DIP:DIP-14_W7.62mm_LongPads" H 3300 1300 50  0001 C CNN
F 3 "http://www.ti.com/lit/gpn/sn74LS10" H 3300 1300 50  0001 C CNN
	3    3300 1300
	1    0    0    -1  
$EndComp
$Comp
L 74xx:74LS32 U32
U 3 1 5F463416
P 3300 2650
F 0 "U32" H 3250 2850 50  0000 C CNN
F 1 "74LS32" H 3300 2450 50  0000 C CNN
F 2 "Package_DIP:DIP-14_W7.62mm_LongPads" H 3300 2650 50  0001 C CNN
F 3 "http://www.ti.com/lit/gpn/sn74LS32" H 3300 2650 50  0001 C CNN
	3    3300 2650
	1    0    0    -1  
$EndComp
$Comp
L 74xx:74LS32 U46
U 4 1 5F464C15
P 3300 3200
F 0 "U46" H 3250 3000 50  0000 C CNN
F 1 "74LS32" H 3300 3400 50  0000 C CNN
F 2 "Package_DIP:DIP-14_W7.62mm_LongPads" H 3300 3200 50  0001 C CNN
F 3 "http://www.ti.com/lit/gpn/sn74LS32" H 3300 3200 50  0001 C CNN
	4    3300 3200
	1    0    0    1   
$EndComp
$Comp
L 74xx:74LS32 U46
U 3 1 5F465F37
P 5850 2900
F 0 "U46" H 5800 3100 50  0000 C CNN
F 1 "74LS32" H 5850 2700 50  0000 C CNN
F 2 "Package_DIP:DIP-14_W7.62mm_LongPads" H 5850 2900 50  0001 C CNN
F 3 "http://www.ti.com/lit/gpn/sn74LS32" H 5850 2900 50  0001 C CNN
	3    5850 2900
	1    0    0    -1  
$EndComp
$Comp
L 74xx:74LS20 U49
U 1 1 5F467E85
P 5850 1800
F 0 "U49" H 5800 2050 50  0000 C CNN
F 1 "74LS20" H 5850 1550 50  0000 C CNN
F 2 "Package_DIP:DIP-14_W7.62mm_LongPads" H 5850 1800 50  0001 C CNN
F 3 "http://www.ti.com/lit/gpn/sn74LS20" H 5850 1800 50  0001 C CNN
	1    5850 1800
	1    0    0    -1  
$EndComp
$Comp
L 74xx:74LS20 U49
U 2 2 5F468AF1
P 7650 1950
F 0 "U49" H 7600 2200 50  0000 C CNN
F 1 "74LS20" H 7650 1700 50  0000 C CNN
F 2 "Package_DIP:DIP-14_W7.62mm_LongPads" H 7650 1950 50  0001 C CNN
F 3 "http://www.ti.com/lit/gpn/sn74LS20" H 7650 1950 50  0001 C CNN
	2    7650 1950
	1    0    0    -1  
$EndComp
$Comp
L 74xx:74LS11 U43
U 1 1 5F46E7AF
P 3300 3850
F 0 "U43" H 3250 4050 50  0000 C CNN
F 1 "74LS11" H 3300 3650 50  0000 C CNN
F 2 "Package_DIP:DIP-14_W7.62mm_LongPads" H 3300 3850 50  0001 C CNN
F 3 "http://www.ti.com/lit/gpn/sn74LS11" H 3300 3850 50  0001 C CNN
	1    3300 3850
	1    0    0    -1  
$EndComp
Text HLabel 9850 1300 2    50   Output ~ 0
~14~
Text HLabel 9850 1950 2    50   Output ~ 0
CLEN
Text HLabel 9850 3850 2    50   Output ~ 0
L11
Text HLabel 2200 1500 0    50   Input ~ 0
LC0
Text HLabel 2200 1400 0    50   Input ~ 0
LC1
Text HLabel 2200 1300 0    50   Input ~ 0
LC2
Text HLabel 2200 1200 0    50   Input ~ 0
LC3
Wire Wire Line
	2200 1200 2700 1200
Wire Wire Line
	2200 1300 2800 1300
Wire Wire Line
	2200 1400 2900 1400
Wire Wire Line
	3600 1300 9850 1300
Wire Wire Line
	4350 1650 5550 1650
Wire Wire Line
	6150 1800 7350 1800
Wire Wire Line
	5550 1750 4750 1750
Wire Wire Line
	4750 1750 4750 2000
Wire Wire Line
	4750 2000 3750 2000
Wire Wire Line
	3150 2000 2900 2000
Wire Wire Line
	2900 2000 2900 1400
Connection ~ 2900 1400
Wire Wire Line
	2900 1400 3000 1400
Wire Wire Line
	2800 1300 2800 2350
Connection ~ 2800 1300
Wire Wire Line
	2800 1300 3000 1300
Wire Wire Line
	2700 1200 2700 2250
Connection ~ 2700 1200
Wire Wire Line
	2700 1200 3000 1200
Wire Wire Line
	2200 1500 2600 1500
Wire Wire Line
	2600 1500 2600 1650
Wire Wire Line
	3750 1650 2600 1650
Connection ~ 2600 1650
Wire Wire Line
	2600 1650 2600 2550
Wire Wire Line
	2900 2000 2900 3300
Connection ~ 2900 2000
Wire Wire Line
	3000 2550 2600 2550
Connection ~ 2600 2550
Wire Wire Line
	2600 2550 2600 3850
Wire Wire Line
	3000 2750 2700 2750
Connection ~ 2700 2750
Wire Wire Line
	3000 3100 2800 3100
Wire Wire Line
	3000 3300 2900 3300
Connection ~ 2900 3300
Wire Wire Line
	2900 3300 2900 3950
Wire Wire Line
	5550 2800 5250 2800
Wire Wire Line
	5250 2800 5250 2650
Wire Wire Line
	5250 2650 3600 2650
Wire Wire Line
	5550 3000 5250 3000
Wire Wire Line
	5250 3000 5250 3200
Wire Wire Line
	5250 3200 3600 3200
Wire Wire Line
	6150 2900 9850 2900
Wire Wire Line
	7950 1950 9850 1950
Wire Wire Line
	7350 1900 7200 1900
Wire Wire Line
	7200 1900 7200 3550
Wire Wire Line
	7200 3550 7100 3550
Wire Wire Line
	3000 3950 2900 3950
Wire Wire Line
	3000 3750 2700 3750
Wire Wire Line
	2700 2750 2700 3750
Wire Wire Line
	3000 3850 2600 3850
Wire Wire Line
	3600 3850 5250 3850
Wire Wire Line
	5250 3850 5250 3550
Wire Wire Line
	5250 3550 6500 3550
Wire Wire Line
	5250 3850 9850 3850
Connection ~ 5250 3850
Text HLabel 9850 2900 2    50   Output ~ 0
U46_8
Wire Wire Line
	5550 1850 4850 1850
Wire Wire Line
	4850 1850 4850 2250
Wire Wire Line
	4850 2250 2700 2250
Connection ~ 2700 2250
Wire Wire Line
	2700 2250 2700 2750
Wire Wire Line
	5550 1950 4950 1950
Wire Wire Line
	4950 1950 4950 2350
Wire Wire Line
	4950 2350 2800 2350
Connection ~ 2800 2350
Wire Wire Line
	2800 2350 2800 3100
Wire Wire Line
	7350 2000 7300 2000
Wire Wire Line
	7300 2000 7300 2100
Wire Wire Line
	7300 2100 7350 2100
Wire Wire Line
	7300 2000 7300 1600
Connection ~ 7300 2000
$Comp
L power:VCC #PWR0111
U 1 1 5F497973
P 7300 1600
F 0 "#PWR0111" H 7300 1450 50  0001 C CNN
F 1 "VCC" H 7317 1773 50  0000 C CNN
F 2 "" H 7300 1600 50  0001 C CNN
F 3 "" H 7300 1600 50  0001 C CNN
	1    7300 1600
	1    0    0    -1  
$EndComp
$Comp
L 74xx:74LS04 U48
U 5 1 5F458C6C
P 4050 1650
F 0 "U48" H 4100 1800 50  0000 C CNN
F 1 "74LS04" H 4200 1500 50  0000 C CNN
F 2 "Package_DIP:DIP-14_W7.62mm_LongPads" H 4050 1650 50  0001 C CNN
F 3 "http://www.ti.com/lit/gpn/sn74LS04" H 4050 1650 50  0001 C CNN
	5    4050 1650
	1    0    0    -1  
$EndComp
$Comp
L 74xx:74LS04 U48
U 4 1 5F459A84
P 3450 2000
F 0 "U48" H 3500 2150 50  0000 C CNN
F 1 "74LS04" H 3600 1850 50  0000 C CNN
F 2 "Package_DIP:DIP-14_W7.62mm_LongPads" H 3450 2000 50  0001 C CNN
F 3 "http://www.ti.com/lit/gpn/sn74LS04" H 3450 2000 50  0001 C CNN
	4    3450 2000
	1    0    0    -1  
$EndComp
$Comp
L 74xx:74LS04 U48
U 6 1 5F45BE57
P 6800 3550
F 0 "U48" H 6850 3700 50  0000 C CNN
F 1 "74LS04" H 6950 3400 50  0000 C CNN
F 2 "Package_DIP:DIP-14_W7.62mm_LongPads" H 6800 3550 50  0001 C CNN
F 3 "http://www.ti.com/lit/gpn/sn74LS04" H 6800 3550 50  0001 C CNN
	6    6800 3550
	1    0    0    -1  
$EndComp
$EndSCHEMATC
