EESchema Schematic File Version 4
LIBS:DisplayControlPCA_60112-cache
EELAYER 29 0
EELAYER END
$Descr A4 11693 8268
encoding utf-8
Sheet 14 17
Title ""
Date ""
Rev ""
Comp ""
Comment1 ""
Comment2 ""
Comment3 ""
Comment4 ""
$EndDescr
$Comp
L 74xx:74LS174 U51
U 1 1 5F4E48F6
P 5600 2900
F 0 "U51" H 5350 3450 50  0000 C CNN
F 1 "74LS174" H 5800 3450 50  0000 C CNN
F 2 "Package_DIP:DIP-16_W7.62mm_LongPads" H 5600 2900 50  0001 C CNN
F 3 "http://www.ti.com/lit/gpn/sn74LS174" H 5600 2900 50  0001 C CNN
	1    5600 2900
	1    0    0    -1  
$EndComp
Wire Wire Line
	5100 3000 4350 3000
Text HLabel 4350 3000 0    50   Input ~ 0
BUS0
Text HLabel 4350 2900 0    50   Input ~ 0
BUS1
Text HLabel 4350 2800 0    50   Input ~ 0
BUS2
Text HLabel 4350 2500 0    50   Input ~ 0
BUS3
Text HLabel 4350 2600 0    50   Input ~ 0
BUS4
Text HLabel 4350 2700 0    50   Input ~ 0
~BUS7~
Wire Wire Line
	4350 2900 5100 2900
Wire Wire Line
	5100 2800 4350 2800
Wire Wire Line
	4350 2700 5100 2700
Wire Wire Line
	5100 2600 4350 2600
Wire Wire Line
	4350 2500 5100 2500
Wire Wire Line
	6100 2500 7050 2500
Wire Wire Line
	6100 2600 7050 2600
Wire Wire Line
	6100 2700 7050 2700
Wire Wire Line
	6100 2800 7050 2800
Wire Wire Line
	6100 2900 7050 2900
Wire Wire Line
	6100 3000 7050 3000
Wire Wire Line
	5100 3200 4350 3200
Text HLabel 4350 3200 0    50   Input ~ 0
~CYS~
$Comp
L 74xx:74LS08 U36
U 3 1 5F4E63AF
P 4700 4000
F 0 "U36" H 4650 3800 50  0000 C CNN
F 1 "74LS08" H 4700 4200 50  0000 C CNN
F 2 "Package_DIP:DIP-14_W7.62mm_LongPads" H 4700 4000 50  0001 C CNN
F 3 "http://www.ti.com/lit/gpn/sn74LS08" H 4700 4000 50  0001 C CNN
	3    4700 4000
	1    0    0    1   
$EndComp
Wire Wire Line
	5100 3400 5050 3400
Wire Wire Line
	5050 4000 5000 4000
Wire Wire Line
	4400 3900 4350 3900
Wire Wire Line
	4350 3900 4350 3850
$Comp
L power:VCC #PWR0165
U 1 1 5F4EBBC8
P 4350 3850
F 0 "#PWR0165" H 4350 3700 50  0001 C CNN
F 1 "VCC" H 4367 4023 50  0000 C CNN
F 2 "" H 4350 3850 50  0001 C CNN
F 3 "" H 4350 3850 50  0001 C CNN
	1    4350 3850
	1    0    0    -1  
$EndComp
$Comp
L power:VCC #PWR0166
U 1 1 5F4EBFB5
P 5600 2200
F 0 "#PWR0166" H 5600 2050 50  0001 C CNN
F 1 "VCC" H 5617 2373 50  0000 C CNN
F 2 "" H 5600 2200 50  0001 C CNN
F 3 "" H 5600 2200 50  0001 C CNN
	1    5600 2200
	1    0    0    -1  
$EndComp
$Comp
L power:GND #PWR0167
U 1 1 5F4ECAD7
P 5600 3700
F 0 "#PWR0167" H 5600 3450 50  0001 C CNN
F 1 "GND" H 5605 3527 50  0000 C CNN
F 2 "" H 5600 3700 50  0001 C CNN
F 3 "" H 5600 3700 50  0001 C CNN
	1    5600 3700
	1    0    0    -1  
$EndComp
$Comp
L Device:R R4
U 1 1 5F4ECF36
P 5050 3700
F 0 "R4" H 5120 3746 50  0000 L CNN
F 1 "470" H 5120 3655 50  0000 L CNN
F 2 "Resistor_THT:R_Axial_DIN0207_L6.3mm_D2.5mm_P10.16mm_Horizontal" V 4980 3700 50  0001 C CNN
F 3 "~" H 5050 3700 50  0001 C CNN
	1    5050 3700
	1    0    0    -1  
$EndComp
Wire Wire Line
	5050 3550 5050 3400
Wire Wire Line
	5050 3850 5050 4000
$Comp
L Device:C C17
U 1 1 5F4ED823
P 4800 3400
F 0 "C17" V 4650 3400 50  0000 C CNN
F 1 ".1" V 4950 3400 50  0000 C CNN
F 2 "Capacitor_THT:C_Disc_D5.0mm_W2.5mm_P5.00mm" H 4838 3250 50  0001 C CNN
F 3 "~" H 4800 3400 50  0001 C CNN
	1    4800 3400
	0    1    1    0   
$EndComp
Wire Wire Line
	5050 3400 4950 3400
Connection ~ 5050 3400
$Comp
L power:GND #PWR0168
U 1 1 5F4EE16D
P 4600 3450
F 0 "#PWR0168" H 4600 3200 50  0001 C CNN
F 1 "GND" H 4605 3277 50  0000 C CNN
F 2 "" H 4600 3450 50  0001 C CNN
F 3 "" H 4600 3450 50  0001 C CNN
	1    4600 3450
	1    0    0    -1  
$EndComp
Wire Wire Line
	4650 3400 4600 3400
Wire Wire Line
	4600 3400 4600 3450
Wire Wire Line
	4400 4100 4350 4100
Text HLabel 4350 4100 0    50   Input ~ 0
PWR_ON
Text HLabel 7050 3000 2    50   Output ~ 0
CURY0
Text HLabel 7050 2900 2    50   Output ~ 0
CURY1
Text HLabel 7050 2800 2    50   Output ~ 0
CURY2
Text HLabel 7050 2500 2    50   Output ~ 0
CURY3
Text HLabel 7050 2600 2    50   Output ~ 0
CURY4
Text HLabel 7050 2700 2    50   Output ~ 0
~BLNK~
$EndSCHEMATC
