EESchema Schematic File Version 4
LIBS:DisplayControlPCA_60112-cache
EELAYER 29 0
EELAYER END
$Descr A3 16535 11693
encoding utf-8
Sheet 1 17
Title "Display Control PCA Schematic Diagram"
Date ""
Rev ""
Comp ""
Comment1 ""
Comment2 ""
Comment3 ""
Comment4 ""
$EndDescr
$Sheet
S 2300 1250 900  1300
U 5F3DCEA8
F0 "Dot Generator" 50
F1 "DotGen.sch" 50
F2 "~DSPY_CLK~" I L 2300 1350 50 
F3 "~D6_E~" O R 3200 1600 50 
F4 "~D8_E~" O R 3200 1700 50 
F5 "~D2_E~" O R 3200 1500 50 
F6 "~D1_E~" O R 3200 1400 50 
F7 "~D0_E~" O R 3200 1300 50 
F8 "D0_I" O R 3200 2200 50 
F9 "D8_I" O R 3200 2400 50 
F10 "~D8_I~" O R 3200 2500 50 
F11 "TPON" I L 2300 1450 50 
F12 "~D0_I~" O R 3200 2300 50 
$EndSheet
$Sheet
S 6250 2100 850  650 
U 5F4069AD
F0 "Dot Shift Generator" 50
F1 "DotShiftGen.sch" 50
F2 "D0" I L 6250 2200 50 
F3 "~D0~" I L 6250 2300 50 
F4 "~D8~" I L 6250 2400 50 
F5 "D8" I L 6250 2500 50 
F6 "~DBIT0~" I L 6250 2600 50 
F7 "SHFT" O R 7100 2200 50 
F8 "~DSPY_CLK~" I L 6250 2700 50 
$EndSheet
$Comp
L 74xx:74HC04 U22
U 3 1 5F444D72
P 1300 1350
F 0 "U22" H 1300 1550 50  0000 C CNN
F 1 "74S04" H 1350 1150 50  0000 C CNN
F 2 "Package_DIP:DIP-14_W7.62mm_LongPads" H 1300 1350 50  0001 C CNN
F 3 "https://assets.nexperia.com/documents/data-sheet/74HC_HCT04.pdf" H 1300 1350 50  0001 C CNN
	3    1300 1350
	1    0    0    -1  
$EndComp
Wire Wire Line
	1850 2700 1850 1350
Connection ~ 1850 1350
Wire Wire Line
	1850 1350 2300 1350
$Sheet
S 8900 3450 850  1650
U 5F4524D1
F0 "Parallel to Serial Converter" 50
F1 "ParToSer.sch" 50
F2 "A" I L 8900 3550 50 
F3 "B" I L 8900 3650 50 
F4 "C" I L 8900 3750 50 
F5 "D" I L 8900 3850 50 
F6 "E" I L 8900 3950 50 
F7 "F" I L 8900 4050 50 
F8 "G" I L 8900 4150 50 
F9 "~LOAD~" I L 8900 4350 50 
F10 "SHFT" I L 8900 4450 50 
F11 "TPON" I L 8900 4650 50 
F12 "~BITS~" O R 9750 3550 50 
$EndSheet
$Comp
L Device:R R3
U 1 1 5F456630
P 13150 9100
F 0 "R3" H 13220 9146 50  0000 L CNN
F 1 "1k" H 13220 9055 50  0000 L CNN
F 2 "Resistor_THT:R_Axial_DIN0207_L6.3mm_D2.5mm_P10.16mm_Horizontal" V 13080 9100 50  0001 C CNN
F 3 "~" H 13150 9100 50  0001 C CNN
	1    13150 9100
	1    0    0    -1  
$EndComp
$Comp
L power:VCC #PWR0104
U 1 1 5F4567BA
P 13150 8950
F 0 "#PWR0104" H 13150 8800 50  0001 C CNN
F 1 "VCC" H 13167 9123 50  0000 C CNN
F 2 "" H 13150 8950 50  0001 C CNN
F 3 "" H 13150 8950 50  0001 C CNN
	1    13150 8950
	1    0    0    -1  
$EndComp
Wire Wire Line
	13150 9250 13150 9350
Text GLabel 13150 9350 3    50   Output ~ 0
*
Wire Wire Line
	8900 4350 8750 4350
Wire Wire Line
	8900 4450 8650 4450
Wire Wire Line
	2300 1450 2200 1450
Wire Wire Line
	1600 1350 1850 1350
$Sheet
S 4550 850  900  800 
U 5F45E4DA
F0 "Scan Line Counter" 50
F1 "ScanCount.sch" 50
F2 "TPON" I L 4550 950 50 
F3 "VRT_CLK" I L 4550 1050 50 
F4 "~14~" I L 4550 1150 50 
F5 "LC0" O R 5450 950 50 
F6 "LC1" O R 5450 1050 50 
F7 "LC2" O R 5450 1150 50 
F8 "LC3" O R 5450 1250 50 
$EndSheet
$Sheet
S 6050 850  1050 850 
U 5F46286B
F0 "Cursor Line Enable Logic" 50
F1 "CurLine.sch" 50
F2 "~14~" O R 7100 950 50 
F3 "CLEN" O R 7100 1050 50 
F4 "L11" O R 7100 1150 50 
F5 "LC0" I L 6050 950 50 
F6 "LC1" I L 6050 1050 50 
F7 "LC2" I L 6050 1150 50 
F8 "LC3" I L 6050 1250 50 
F9 "U46_8" O R 7100 1250 50 
$EndSheet
Wire Wire Line
	5450 950  5950 950 
Wire Wire Line
	6050 1050 5850 1050
Wire Wire Line
	5450 1150 5750 1150
Wire Wire Line
	6050 1250 5650 1250
Wire Wire Line
	4550 1150 4400 1150
Wire Wire Line
	4400 1150 4400 650 
Wire Wire Line
	4400 650  7450 650 
Wire Wire Line
	7450 650  7450 950 
Wire Wire Line
	7450 950  7100 950 
$Sheet
S 10300 7800 1450 1150
U 5F3F1464
F0 "Bus Decoder Network" 50
F1 "BusDecode.sch" 50
F2 "~ADDR5~" I L 10300 8000 50 
F3 "~WRITE~" I L 10300 8600 50 
F4 "~REQ~" I L 10300 8700 50 
F5 "~I_O~" I L 10300 8500 50 
F6 "~ADDR11~" I L 10300 8300 50 
F7 "~ADDR9~" I L 10300 8100 50 
F8 "~ADDR4~" I L 10300 7900 50 
F9 "~ADDR10~" I L 10300 8200 50 
F10 "~CXS~" O R 11750 7900 50 
F11 "~CYS~" O R 11750 8000 50 
$EndSheet
$Sheet
S 3950 4450 1200 1250
U 5F414B8D
F0 "Character Select Logic" 50
F1 "CharSel.sch" 50
F2 "~BIT5~" I L 3950 5300 50 
F3 "~BIT6~" I L 3950 5450 50 
F4 "BIT6" I L 3950 5600 50 
F5 "~LCSEL~" O R 5150 4550 50 
F6 "~UCSEL~" O R 5150 4650 50 
F7 "~BSS0" I L 3950 4550 50 
F8 "~BSS1" I L 3950 4650 50 
F9 "~E1~" O R 5150 4850 50 
$EndSheet
$Comp
L 74xx:74LS04 U19
U 1 1 5F442C13
P 1800 4900
F 0 "U19" H 1850 5050 50  0000 C CNN
F 1 "74LS04" H 1900 4750 50  0000 C CNN
F 2 "Package_DIP:DIP-14_W7.62mm_LongPads" H 1800 4900 50  0001 C CNN
F 3 "http://www.ti.com/lit/gpn/sn74LS04" H 1800 4900 50  0001 C CNN
	1    1800 4900
	1    0    0    -1  
$EndComp
$Comp
L 74xx:74LS04 U19
U 2 1 5F442E25
P 1800 7100
F 0 "U19" H 1850 7250 50  0000 C CNN
F 1 "74LS04" H 1900 6950 50  0000 C CNN
F 2 "Package_DIP:DIP-14_W7.62mm_LongPads" H 1800 7100 50  0001 C CNN
F 3 "http://www.ti.com/lit/gpn/sn74LS04" H 1800 7100 50  0001 C CNN
	2    1800 7100
	1    0    0    -1  
$EndComp
$Comp
L 74xx:74LS04 U19
U 3 1 5F443783
P 1800 6500
F 0 "U19" H 1850 6650 50  0000 C CNN
F 1 "74LS04" H 1950 6400 50  0000 C CNN
F 2 "Package_DIP:DIP-14_W7.62mm_LongPads" H 1800 6500 50  0001 C CNN
F 3 "http://www.ti.com/lit/gpn/sn74LS04" H 1800 6500 50  0001 C CNN
	3    1800 6500
	1    0    0    -1  
$EndComp
$Comp
L 74xx:74LS04 U19
U 4 1 5F443EAB
P 1800 3900
F 0 "U19" H 1900 4050 50  0000 C CNN
F 1 "74LS04" H 1950 3750 50  0000 C CNN
F 2 "Package_DIP:DIP-14_W7.62mm_LongPads" H 1800 3900 50  0001 C CNN
F 3 "http://www.ti.com/lit/gpn/sn74LS04" H 1800 3900 50  0001 C CNN
	4    1800 3900
	1    0    0    -1  
$EndComp
$Comp
L 74xx:74LS04 U19
U 5 1 5F4441ED
P 1800 6000
F 0 "U19" H 1900 6150 50  0000 C CNN
F 1 "74LS04" H 2000 5900 50  0000 C CNN
F 2 "Package_DIP:DIP-14_W7.62mm_LongPads" H 1800 6000 50  0001 C CNN
F 3 "http://www.ti.com/lit/gpn/sn74LS04" H 1800 6000 50  0001 C CNN
	5    1800 6000
	1    0    0    -1  
$EndComp
$Comp
L 74xx:74LS04 U19
U 6 1 5F444A4B
P 1800 4400
F 0 "U19" H 1900 4550 50  0000 C CNN
F 1 "74LS04" H 1950 4300 50  0000 C CNN
F 2 "Package_DIP:DIP-14_W7.62mm_LongPads" H 1800 4400 50  0001 C CNN
F 3 "http://www.ti.com/lit/gpn/sn74LS04" H 1800 4400 50  0001 C CNN
	6    1800 4400
	1    0    0    -1  
$EndComp
$Comp
L 74xx:74LS04 U48
U 3 1 5F44C8B8
P 2350 5500
F 0 "U48" H 2400 5650 50  0000 C CNN
F 1 "74LS04" H 2500 5400 50  0000 C CNN
F 2 "Package_DIP:DIP-14_W7.62mm_LongPads" H 2350 5500 50  0001 C CNN
F 3 "http://www.ti.com/lit/gpn/sn74LS04" H 2350 5500 50  0001 C CNN
	3    2350 5500
	1    0    0    -1  
$EndComp
Wire Wire Line
	1500 7100 1400 7100
Wire Wire Line
	1500 6500 1100 6500
Wire Wire Line
	1500 6000 1100 6000
Wire Wire Line
	1500 4900 1100 4900
Wire Wire Line
	2050 5500 1800 5500
Wire Wire Line
	1500 4400 1100 4400
Wire Wire Line
	1500 3900 1100 3900
Wire Wire Line
	1800 5500 1800 5300
Wire Wire Line
	1800 5300 3950 5300
Connection ~ 1800 5500
Wire Wire Line
	1800 5500 1100 5500
Wire Wire Line
	1400 7100 1400 6800
Wire Wire Line
	1400 6800 3350 6800
Wire Wire Line
	3350 6800 3350 5450
Wire Wire Line
	3350 5450 3950 5450
Connection ~ 1400 7100
Wire Wire Line
	1400 7100 1100 7100
Wire Wire Line
	3550 7100 3550 5600
Wire Wire Line
	3550 5600 3950 5600
$Sheet
S 11100 2550 1050 900 
U 5F4617C4
F0 "Modulo 25 Row Counter" 50
F1 "RowCounter§.sch" 50
F2 "~14~" I L 11100 2650 50 
F3 "A" O R 12150 2650 50 
F4 "B" O R 12150 2750 50 
F5 "C" O R 12150 2850 50 
F6 "D" O R 12150 2950 50 
F7 "E" O R 12150 3050 50 
F8 "TPON" I L 11100 2750 50 
F9 "14" O R 12150 3250 50 
F10 "VBLNK" O R 12150 3350 50 
$EndSheet
Wire Wire Line
	10900 2650 11100 2650
$Sheet
S 13050 2550 1100 1300
U 5F41A79C
F0 "Video Logic" 50
F1 "VideoLogicB.sch" 50
F2 "B" I L 13050 2750 50 
F3 "C" I L 13050 2850 50 
F4 "E" I L 13050 3050 50 
F5 "A" I L 13050 2650 50 
F6 "14" I L 13050 3250 50 
F7 "GVS" O R 14150 2650 50 
F8 "INTSET" O R 14150 2750 50 
F9 "EVEN" O R 14150 2850 50 
F10 "VDR" O R 14150 2950 50 
F11 "~103~" I L 13050 3450 50 
F12 "TPON" I L 13050 3550 50 
F13 "U46_8" I L 13050 3650 50 
F14 "VBLNK" I L 13050 3350 50 
$EndSheet
Wire Wire Line
	12150 2650 12650 2650
Wire Wire Line
	13050 2750 12550 2750
Wire Wire Line
	12150 2850 12450 2850
Wire Wire Line
	13050 3050 12250 3050
Wire Wire Line
	12150 3350 12850 3350
Wire Wire Line
	13050 3650 12750 3650
$Sheet
S 10600 10800 1050 200 
U 5F40FD50
F0 "Terminal Bus (P1)" 50
F1 "BUS_P1.sch" 50
$EndSheet
Text GLabel 9900 7900 0    50   Input ~ 0
~ADDR4~
Wire Wire Line
	9900 7900 10300 7900
Wire Wire Line
	9900 8000 10300 8000
Wire Wire Line
	9900 8100 10300 8100
Wire Wire Line
	9900 8200 10300 8200
Wire Wire Line
	9900 8300 10300 8300
Text GLabel 9900 8000 0    50   Input ~ 0
~ADDR5~
Text GLabel 9900 8100 0    50   Input ~ 0
~ADDR9~
Text GLabel 9900 8200 0    50   Input ~ 0
~ADDR10~
Text GLabel 9900 8300 0    50   Input ~ 0
~ADDR11~
Text GLabel 9900 8500 0    50   Input ~ 0
~IO~
Text GLabel 9900 8600 0    50   Input ~ 0
~WRITE~
Text GLabel 9900 8700 0    50   Input ~ 0
~REQ~
Wire Wire Line
	9900 8500 10300 8500
Wire Wire Line
	10300 8600 9900 8600
Wire Wire Line
	9900 8700 10300 8700
$Sheet
S 8900 10800 1250 200 
U 5F40E4DD
F0 "IC power symbols" 50
F1 "Power.sch" 50
$EndSheet
$Sheet
S 10600 10000 1050 200 
U 5F494B71
F0 "Display Bus (P3)" 50
F1 "BUS_P3.sch" 50
$EndSheet
Text GLabel 1000 1350 0    50   Input ~ 0
DSPY_CLK
Text GLabel 1100 3900 0    50   Input ~ 0
~BIT0~
Text GLabel 1100 4400 0    50   Input ~ 0
~BIT2~
Text GLabel 1100 4900 0    50   Input ~ 0
~BIT4~
Text GLabel 1100 5500 0    50   Input ~ 0
~BIT5~
Text GLabel 1100 6000 0    50   Input ~ 0
~BIT1~
Text GLabel 1100 6500 0    50   Input ~ 0
~BIT3~
Text GLabel 1100 7100 0    50   Input ~ 0
~BIT6~
Wire Wire Line
	3200 1300 3400 1300
Wire Wire Line
	3200 1400 3400 1400
Wire Wire Line
	3200 1500 3400 1500
Wire Wire Line
	3200 1600 3400 1600
Wire Wire Line
	3200 1700 3400 1700
Text GLabel 3400 1300 2    50   Output ~ 0
~D0~
Text GLabel 3400 1400 2    50   Output ~ 0
~D1~
Text GLabel 3400 1500 2    50   Output ~ 0
~D2~
Text GLabel 3400 1600 2    50   Output ~ 0
~D6~
Text GLabel 3400 1700 2    50   Output ~ 0
~D8~
Wire Wire Line
	4550 1050 4050 1050
Text GLabel 4050 1050 0    50   Input ~ 0
VRT_CLK
Wire Wire Line
	7100 1050 7650 1050
Wire Wire Line
	7100 1150 7650 1150
Text GLabel 7650 1050 2    50   Output ~ 0
CLEN
Text GLabel 7650 1150 2    50   Output ~ 0
L11
Wire Wire Line
	14150 2650 14400 2650
Wire Wire Line
	14150 2750 14400 2750
Wire Wire Line
	14150 2850 14400 2850
Wire Wire Line
	14150 2950 14400 2950
Text GLabel 14400 2650 2    50   Output ~ 0
GVS
Text GLabel 14400 2750 2    50   Output ~ 0
INTSET
Text GLabel 14400 2850 2    50   Output ~ 0
EVEN
Text GLabel 14400 2950 2    50   Output ~ 0
VDR
Wire Wire Line
	13050 3450 12850 3450
Wire Wire Line
	12850 3450 12850 3800
Text GLabel 12150 3800 0    50   Input ~ 0
~103~
Wire Wire Line
	11750 7900 12000 7900
Wire Wire Line
	11750 8000 11900 8000
Text GLabel 12000 7900 2    50   Output ~ 0
~CXS~
Text GLabel 12000 8000 2    50   Output ~ 0
~CYS~
Wire Wire Line
	9750 3550 9950 3550
Text GLabel 9950 3550 2    50   Output ~ 0
~BITS~
Wire Wire Line
	12850 3350 12850 2150
Wire Wire Line
	12850 2150 14400 2150
Connection ~ 12850 3350
Wire Wire Line
	12850 3350 13050 3350
Text GLabel 14400 2150 2    50   Output ~ 0
VBLNK
$Sheet
S 13050 6250 950  1050
U 5F4E30B3
F0 "Cursor Y Holding Register" 50
F1 "CurYHoldReg.sch" 50
F2 "BUS0" I L 13050 6350 50 
F3 "BUS1" I L 13050 6450 50 
F4 "BUS2" I L 13050 6550 50 
F5 "BUS3" I L 13050 6650 50 
F6 "BUS4" I L 13050 6750 50 
F7 "~BUS7~" I L 13050 6850 50 
F8 "~CYS~" I L 13050 7050 50 
F9 "PWR_ON" I L 13050 7200 50 
F10 "CURY0" O R 14000 6350 50 
F11 "CURY1" O R 14000 6450 50 
F12 "CURY2" O R 14000 6550 50 
F13 "CURY3" O R 14000 6650 50 
F14 "CURY4" O R 14000 6750 50 
F15 "~BLNK~" O R 14000 7050 50 
$EndSheet
$Sheet
S 14450 5300 950  2000
U 5F4E32CC
F0 "Cursor Y Comparator" 50
F1 "CurYCmp.sch" 50
F2 "E" I L 14450 5800 50 
F3 "D" I L 14450 5700 50 
F4 "C" I L 14450 5600 50 
F5 "B" I L 14450 5500 50 
F6 "A" I L 14450 5400 50 
F7 "CURY0" I L 14450 6350 50 
F8 "CURY1" I L 14450 6450 50 
F9 "CURY2" I L 14450 6550 50 
F10 "CURY3" I L 14450 6650 50 
F11 "CURY4" I L 14450 6750 50 
F12 "CYEN" O R 15400 5400 50 
$EndSheet
Wire Wire Line
	11900 8000 11900 7050
Wire Wire Line
	11900 7050 13050 7050
Connection ~ 11900 8000
Wire Wire Line
	11900 8000 12000 8000
Wire Wire Line
	13050 7200 12850 7200
Text GLabel 12850 7200 0    50   Input ~ 0
PWR_ON
$Comp
L 74xx:74LS04 U52
U 2 1 5F4FFD9E
P 10700 6550
F 0 "U52" H 10800 6650 50  0000 C CNN
F 1 "74LS04" H 10900 6450 50  0000 C CNN
F 2 "Package_DIP:DIP-14_W7.62mm_LongPads" H 10700 6550 50  0001 C CNN
F 3 "http://www.ti.com/lit/gpn/sn74LS04" H 10700 6550 50  0001 C CNN
	2    10700 6550
	1    0    0    -1  
$EndComp
$Comp
L 74xx:74LS04 U52
U 3 1 5F50036C
P 10700 6150
F 0 "U52" H 10850 6250 50  0000 C CNN
F 1 "74LS04" H 10900 6050 50  0000 C CNN
F 2 "Package_DIP:DIP-14_W7.62mm_LongPads" H 10700 6150 50  0001 C CNN
F 3 "http://www.ti.com/lit/gpn/sn74LS04" H 10700 6150 50  0001 C CNN
	3    10700 6150
	1    0    0    -1  
$EndComp
$Comp
L 74xx:74LS04 U52
U 4 1 5F5008D9
P 10700 5050
F 0 "U52" H 10800 5150 50  0000 C CNN
F 1 "74LS04" H 10850 4950 50  0000 C CNN
F 2 "Package_DIP:DIP-14_W7.62mm_LongPads" H 10700 5050 50  0001 C CNN
F 3 "http://www.ti.com/lit/gpn/sn74LS04" H 10700 5050 50  0001 C CNN
	4    10700 5050
	1    0    0    -1  
$EndComp
$Comp
L 74xx:74LS04 U52
U 5 1 5F5011F7
P 10700 5750
F 0 "U52" H 10800 5850 50  0000 C CNN
F 1 "74LS04" H 10850 5650 50  0000 C CNN
F 2 "Package_DIP:DIP-14_W7.62mm_LongPads" H 10700 5750 50  0001 C CNN
F 3 "http://www.ti.com/lit/gpn/sn74LS04" H 10700 5750 50  0001 C CNN
	5    10700 5750
	1    0    0    -1  
$EndComp
$Comp
L 74xx:74LS04 U52
U 6 1 5F5018EA
P 10700 5400
F 0 "U52" H 10800 5500 50  0000 C CNN
F 1 "74LS04" H 10850 5300 50  0000 C CNN
F 2 "Package_DIP:DIP-14_W7.62mm_LongPads" H 10700 5400 50  0001 C CNN
F 3 "http://www.ti.com/lit/gpn/sn74LS04" H 10700 5400 50  0001 C CNN
	6    10700 5400
	1    0    0    -1  
$EndComp
Text GLabel 10200 5050 0    50   Input ~ 0
~BUS0~
Text GLabel 10200 5400 0    50   Input ~ 0
~BUS1~
Text GLabel 10200 5750 0    50   Input ~ 0
~BUS2~
Text GLabel 10200 6150 0    50   Input ~ 0
~BUS3~
Text GLabel 10200 6550 0    50   Input ~ 0
~BUS4~
Text GLabel 10200 6850 0    50   Input ~ 0
~BUS7~
Wire Wire Line
	10200 6850 13050 6850
Wire Wire Line
	11000 6550 11550 6550
Wire Wire Line
	11550 6550 11550 6750
Wire Wire Line
	11550 6750 13050 6750
Wire Wire Line
	11000 6150 11650 6150
Wire Wire Line
	11650 6150 11650 6650
Wire Wire Line
	11650 6650 13050 6650
Wire Wire Line
	11000 5750 11750 5750
Wire Wire Line
	11750 5750 11750 6550
Wire Wire Line
	11750 6550 13050 6550
Wire Wire Line
	11000 5400 11850 5400
Wire Wire Line
	11850 5400 11850 6450
Wire Wire Line
	11850 6450 13050 6450
Wire Wire Line
	11000 5050 11950 5050
Wire Wire Line
	11950 5050 11950 6350
Wire Wire Line
	11950 6350 13050 6350
Wire Wire Line
	10200 5050 10400 5050
Wire Wire Line
	10200 5400 10400 5400
Wire Wire Line
	10200 5750 10400 5750
Wire Wire Line
	10200 6150 10400 6150
Wire Wire Line
	10200 6550 10400 6550
Wire Wire Line
	12150 3800 12850 3800
Connection ~ 12250 3050
Wire Wire Line
	12250 3050 12150 3050
Wire Wire Line
	14000 6450 14450 6450
Wire Wire Line
	14000 6350 14450 6350
Wire Wire Line
	14000 6550 14450 6550
Wire Wire Line
	14000 6650 14450 6650
Wire Wire Line
	14000 6750 14450 6750
Wire Wire Line
	12650 2650 12650 5400
Wire Wire Line
	12650 5400 14450 5400
Connection ~ 12650 2650
Wire Wire Line
	12650 2650 13050 2650
Wire Wire Line
	12550 2750 12550 5500
Wire Wire Line
	12550 5500 14450 5500
Connection ~ 12550 2750
Wire Wire Line
	12550 2750 12150 2750
Wire Wire Line
	12450 2850 12450 5600
Wire Wire Line
	12450 5600 14450 5600
Connection ~ 12450 2850
Wire Wire Line
	12450 2850 13050 2850
Wire Wire Line
	12350 2950 12350 5700
Wire Wire Line
	12350 5700 14450 5700
Wire Wire Line
	12150 2950 12350 2950
Wire Wire Line
	12250 5800 14450 5800
Wire Wire Line
	12250 3050 12250 5800
Wire Wire Line
	15400 5400 15500 5400
Text GLabel 15600 5400 2    50   Output ~ 0
CYEN
$Sheet
S 6300 3350 1300 1700
U 5F42F3EF
F0 "Character ROMs" 50
F1 "CharRom.sch" 50
F2 "A0" I L 6300 3450 50 
F3 "A1" I L 6300 3550 50 
F4 "A2" I L 6300 3650 50 
F5 "A3" I L 6300 3750 50 
F6 "A4" I L 6300 3850 50 
F7 "A5" I L 6300 3950 50 
F8 "A6" I L 6300 4050 50 
F9 "A7" I L 6300 4150 50 
F10 "A8" I L 6300 4250 50 
F11 "A9" I L 6300 4350 50 
F12 "~CHARSET0~" I L 6300 4850 50 
F13 "~LCSEL~" I L 6300 4550 50 
F14 "~UCSEL~" I L 6300 4650 50 
F15 "~DBIT0~" O R 7600 3450 50 
F16 "~DBIT1~" O R 7600 4150 50 
F17 "~DBIT2~" O R 7600 4050 50 
F18 "~DBIT3~" O R 7600 3950 50 
F19 "~DBIT4~" O R 7600 3850 50 
F20 "~DBIT5~" O R 7600 3750 50 
F21 "~DBIT6~" O R 7600 3650 50 
F22 "~DBIT7~" O R 7600 3550 50 
$EndSheet
Wire Wire Line
	7600 3450 7750 3450
Wire Wire Line
	3200 2200 6250 2200
Wire Wire Line
	3200 2300 6250 2300
Wire Wire Line
	3200 2500 6250 2500
Wire Wire Line
	1850 2700 6250 2700
Wire Wire Line
	8900 4650 8800 4650
Text Label 8800 4650 2    50   ~ 0
TPON
Wire Wire Line
	13050 3550 12150 3550
Text Label 12150 3550 2    50   ~ 0
TPON
Text Label 10900 2750 2    50   ~ 0
TPON
Wire Wire Line
	11100 2750 10900 2750
Text Label 2200 1450 2    50   ~ 0
TPON
Wire Wire Line
	12750 1250 12750 3650
Wire Wire Line
	7100 1250 12750 1250
Wire Wire Line
	7450 950  10900 950 
Wire Wire Line
	10900 950  10900 2650
Connection ~ 7450 950 
Wire Wire Line
	3200 2400 6150 2400
Connection ~ 6150 2400
Wire Wire Line
	6150 2400 6250 2400
Wire Wire Line
	5950 950  5950 3450
Wire Wire Line
	5950 3450 6300 3450
Connection ~ 5950 950 
Wire Wire Line
	5950 950  6050 950 
Wire Wire Line
	6300 3550 5850 3550
Wire Wire Line
	5850 3550 5850 1050
Connection ~ 5850 1050
Wire Wire Line
	5850 1050 5450 1050
Wire Wire Line
	5750 1150 5750 3650
Wire Wire Line
	5750 3650 6300 3650
Connection ~ 5750 1150
Wire Wire Line
	5750 1150 6050 1150
Wire Wire Line
	5650 1250 5650 3750
Wire Wire Line
	5650 3750 6300 3750
Connection ~ 5650 1250
Wire Wire Line
	5650 1250 5450 1250
Wire Wire Line
	6050 2600 6050 3200
Wire Wire Line
	6050 3200 7750 3200
Wire Wire Line
	7750 3200 7750 3450
Wire Wire Line
	6050 2600 6250 2600
Text Label 4050 950  2    50   ~ 0
TPON
Wire Wire Line
	4050 950  4550 950 
Wire Wire Line
	5150 4550 5500 4550
Wire Wire Line
	6300 4650 5600 4650
Wire Wire Line
	5150 4850 5400 4850
Wire Wire Line
	2100 3900 2350 3900
Wire Wire Line
	2750 3900 2750 3850
Wire Wire Line
	2750 3850 6300 3850
Wire Wire Line
	2100 4400 2450 4400
Wire Wire Line
	2950 4400 2950 4050
Wire Wire Line
	2950 4050 6300 4050
Wire Wire Line
	2100 4900 2550 4900
Wire Wire Line
	3150 4900 3150 4250
Wire Wire Line
	3150 4250 6300 4250
Wire Wire Line
	2100 6000 2350 6000
Wire Wire Line
	2850 6000 2850 3950
Wire Wire Line
	2850 3950 6300 3950
Wire Wire Line
	2100 6500 2450 6500
Wire Wire Line
	3050 6500 3050 4150
Wire Wire Line
	3050 4150 6300 4150
Wire Wire Line
	2100 7100 2550 7100
Wire Wire Line
	3250 7100 3250 4350
Wire Wire Line
	3250 4350 6300 4350
Connection ~ 3250 7100
Wire Wire Line
	3250 7100 3550 7100
Text GLabel 3650 4550 0    50   Input ~ 0
~BSS0~
Text GLabel 3650 4650 0    50   Input ~ 0
~BSS1~
Wire Wire Line
	3650 4550 3750 4550
Wire Wire Line
	3650 4650 3850 4650
Wire Wire Line
	14000 7050 14100 7050
Wire Wire Line
	14100 7050 14100 7850
Wire Wire Line
	14100 7850 14550 7850
Text GLabel 14550 7850 2    50   Output ~ 0
~BLNK~
Wire Wire Line
	10900 950  11200 950 
Text GLabel 11200 950  2    50   Output ~ 0
~14~
Wire Wire Line
	12150 3250 13050 3250
Connection ~ 10900 950 
Text GLabel 1250 8100 0    50   Input ~ 0
PRIOR_IN
Text GLabel 1650 8100 2    50   Output ~ 0
PRIOR_OUT
Wire Wire Line
	1250 8100 1650 8100
Text GLabel 13650 8950 1    50   Input ~ 0
R1G
Wire Wire Line
	13650 8950 13650 9100
Text Label 13650 9350 1    50   ~ 0
TPON
$Comp
L Device:R_Network07 R1
U 1 1 5F80CCE1
P 3850 8950
F 0 "R1" H 4238 8996 50  0000 L CNN
F 1 "4.7k" H 4238 8905 50  0000 L CNN
F 2 "Resistor_THT:R_Array_SIP8" V 4325 8950 50  0001 C CNN
F 3 "http://www.vishay.com/docs/31509/csc.pdf" H 3850 8950 50  0001 C CNN
	1    3850 8950
	1    0    0    -1  
$EndComp
$Comp
L Device:R_Network07 R2
U 1 1 5F80D4C3
P 5500 8900
F 0 "R2" H 5888 8946 50  0000 L CNN
F 1 "4.7k" H 5888 8855 50  0000 L CNN
F 2 "Resistor_THT:R_Array_SIP8" V 5975 8900 50  0001 C CNN
F 3 "http://www.vishay.com/docs/31509/csc.pdf" H 5500 8900 50  0001 C CNN
	1    5500 8900
	1    0    0    -1  
$EndComp
$Comp
L power:VCC #PWR0179
U 1 1 5F80E458
P 3550 8750
F 0 "#PWR0179" H 3550 8600 50  0001 C CNN
F 1 "VCC" H 3567 8923 50  0000 C CNN
F 2 "" H 3550 8750 50  0001 C CNN
F 3 "" H 3550 8750 50  0001 C CNN
	1    3550 8750
	1    0    0    -1  
$EndComp
$Comp
L power:VCC #PWR0180
U 1 1 5F80E87B
P 5200 8700
F 0 "#PWR0180" H 5200 8550 50  0001 C CNN
F 1 "VCC" H 5217 8873 50  0000 C CNN
F 2 "" H 5200 8700 50  0001 C CNN
F 3 "" H 5200 8700 50  0001 C CNN
	1    5200 8700
	1    0    0    -1  
$EndComp
Text GLabel 4150 9150 3    50   Output ~ 0
R1H
Text GLabel 3550 9150 3    50   Output ~ 0
R1B
Text GLabel 3650 9150 3    50   Output ~ 0
R1C
Text GLabel 3750 9150 3    50   Output ~ 0
R1D
Text GLabel 3850 9150 3    50   Output ~ 0
R1E
Text GLabel 3950 9150 3    50   Output ~ 0
R1F
Text GLabel 4050 9150 3    50   Output ~ 0
R1G
Text GLabel 5200 9100 3    50   Output ~ 0
R2B
Text GLabel 5300 9100 3    50   Output ~ 0
R2C
Text GLabel 5400 9100 3    50   Output ~ 0
R2D
Text GLabel 5500 9100 3    50   Output ~ 0
R2E
Text GLabel 5600 9100 3    50   Output ~ 0
R2F
Text GLabel 5700 9100 3    50   Output ~ 0
R2G
Text GLabel 5800 9100 3    50   Output ~ 0
R2H
Wire Wire Line
	7600 3550 7850 3550
Wire Wire Line
	7600 3650 7950 3650
Wire Wire Line
	7600 3750 8050 3750
Wire Wire Line
	7600 3850 8150 3850
Wire Wire Line
	7600 3950 8250 3950
Wire Wire Line
	7600 4050 8350 4050
Wire Wire Line
	7600 4150 8450 4150
Wire Wire Line
	8650 2200 8650 4450
Wire Wire Line
	7100 2200 8650 2200
Wire Wire Line
	8750 1950 6150 1950
Wire Wire Line
	6150 1950 6150 2400
Wire Wire Line
	8750 1950 8750 4350
Wire Wire Line
	7850 3550 7850 3100
Connection ~ 7850 3550
Wire Wire Line
	7850 3550 8900 3550
Wire Wire Line
	7950 3650 7950 3100
Connection ~ 7950 3650
Wire Wire Line
	7950 3650 8900 3650
Wire Wire Line
	8050 3750 8050 3100
Connection ~ 8050 3750
Wire Wire Line
	8050 3750 8900 3750
Wire Wire Line
	8150 3850 8150 3100
Connection ~ 8150 3850
Wire Wire Line
	8150 3850 8900 3850
Wire Wire Line
	8250 3950 8250 3100
Connection ~ 8250 3950
Wire Wire Line
	8250 3950 8900 3950
Wire Wire Line
	8350 4050 8350 3100
Connection ~ 8350 4050
Wire Wire Line
	8350 4050 8900 4050
Wire Wire Line
	8450 4150 8450 3100
Connection ~ 8450 4150
Wire Wire Line
	8450 4150 8900 4150
Text GLabel 7850 3100 1    50   Input ~ 0
R2H
Wire Wire Line
	7750 3200 7750 3100
Connection ~ 7750 3200
Text GLabel 7750 3100 1    50   Input ~ 0
R1F
Text GLabel 8450 3100 1    50   Input ~ 0
R2C
Text GLabel 8350 3100 1    50   Input ~ 0
R2B
Text GLabel 8250 3100 1    50   Input ~ 0
R2D
Text GLabel 8150 3100 1    50   Input ~ 0
R2E
Text GLabel 8050 3100 1    50   Input ~ 0
R2F
Text GLabel 7950 3100 1    50   Input ~ 0
R2G
Wire Wire Line
	3850 4650 3850 3650
Connection ~ 3850 4650
Wire Wire Line
	3850 4650 3950 4650
Wire Wire Line
	3750 4550 3750 3650
Connection ~ 3750 4550
Wire Wire Line
	3750 4550 3950 4550
Text GLabel 3750 3650 1    50   Input ~ 0
R1C
Text GLabel 3850 3650 1    50   Input ~ 0
R1B
Wire Wire Line
	15500 5400 15500 5000
Connection ~ 15500 5400
Wire Wire Line
	15500 5400 15600 5400
Text GLabel 15500 5000 1    50   Input ~ 0
R1H
$Comp
L Connector:TestPoint TP?
U 1 1 5F4A582C
P 14000 8950
AR Path="/5F4617C4/5F4A582C" Ref="TP?"  Part="1" 
AR Path="/5F4A582C" Ref="TP2"  Part="1" 
F 0 "TP2" V 14100 9100 50  0000 C CNN
F 1 "TPON" V 13900 9050 50  0000 C CNN
F 2 "Connector_PinHeader_2.54mm:PinHeader_1x01_P2.54mm_Vertical" H 14200 8950 50  0001 C CNN
F 3 "~" H 14200 8950 50  0001 C CNN
	1    14000 8950
	1    0    0    -1  
$EndComp
Wire Wire Line
	14000 8950 14000 9100
Wire Wire Line
	14000 9100 13650 9100
Connection ~ 13650 9100
Wire Wire Line
	13650 9100 13650 9350
$Comp
L Connector:TestPoint TP?
U 1 1 5F5EED35
P 14800 8950
AR Path="/5F4617C4/5F5EED35" Ref="TP?"  Part="1" 
AR Path="/5F5EED35" Ref="TP4"  Part="1" 
F 0 "TP4" V 14900 9100 50  0000 C CNN
F 1 "GND" V 14700 9050 50  0000 C CNN
F 2 "Connector_PinHeader_2.54mm:PinHeader_1x01_P2.54mm_Vertical" H 15000 8950 50  0001 C CNN
F 3 "~" H 15000 8950 50  0001 C CNN
	1    14800 8950
	1    0    0    -1  
$EndComp
$Comp
L power:GND #PWR03
U 1 1 5F5EF39D
P 14800 9350
F 0 "#PWR03" H 14800 9100 50  0001 C CNN
F 1 "GND" H 14805 9177 50  0000 C CNN
F 2 "" H 14800 9350 50  0001 C CNN
F 3 "" H 14800 9350 50  0001 C CNN
	1    14800 9350
	1    0    0    -1  
$EndComp
Wire Wire Line
	14800 8950 14800 9350
$Sheet
S 10600 10400 1050 200 
U 5F5E1D29
F0 "Extension Bus (P2)" 50
F1 "BUS_P2.sch" 50
$EndSheet
Text GLabel 2350 3500 1    50   Output ~ 0
BIT0
Text GLabel 2450 3500 1    50   Output ~ 0
BIT2
Text GLabel 2550 3500 1    50   Output ~ 0
BIT4
Wire Wire Line
	2350 3500 2350 3900
Connection ~ 2350 3900
Wire Wire Line
	2350 3900 2750 3900
Wire Wire Line
	2450 3500 2450 4400
Connection ~ 2450 4400
Wire Wire Line
	2450 4400 2950 4400
Wire Wire Line
	2550 3500 2550 4900
Connection ~ 2550 4900
Wire Wire Line
	2550 4900 3150 4900
Wire Wire Line
	2650 5500 2650 3500
Text GLabel 2650 3500 1    50   Output ~ 0
BIT5
Text GLabel 2350 7400 3    50   Output ~ 0
BIT1
Text GLabel 2450 7400 3    50   Output ~ 0
BIT3
Text GLabel 2550 7400 3    50   Output ~ 0
BIT6
Wire Wire Line
	2350 7400 2350 6000
Connection ~ 2350 6000
Wire Wire Line
	2350 6000 2850 6000
Wire Wire Line
	2450 7400 2450 6500
Connection ~ 2450 6500
Wire Wire Line
	2450 6500 3050 6500
Wire Wire Line
	2550 7400 2550 7100
Connection ~ 2550 7100
Wire Wire Line
	2550 7100 3250 7100
Text GLabel 7750 4300 3    50   Input ~ 0
~DBIT0~
Text GLabel 7850 4300 3    50   Input ~ 0
~DBIT7~
Text GLabel 7950 4300 3    50   Input ~ 0
~DBIT6~
Text GLabel 8050 4300 3    50   Input ~ 0
~DBIT5~
Text GLabel 8150 4300 3    50   Input ~ 0
~DBIT4~
Text GLabel 8250 4300 3    50   Input ~ 0
~DBIT3~
Text GLabel 8350 4300 3    50   Input ~ 0
~DBIT2~
Text GLabel 8450 4300 3    50   Input ~ 0
~DBIT1~
Wire Wire Line
	8450 4300 8450 4150
Wire Wire Line
	8350 4300 8350 4050
Wire Wire Line
	8250 4300 8250 3950
Wire Wire Line
	8150 4300 8150 3850
Wire Wire Line
	8050 4300 8050 3750
Wire Wire Line
	7950 4300 7950 3650
Wire Wire Line
	7850 4300 7850 3550
Wire Wire Line
	7750 4300 7750 3450
Connection ~ 7750 3450
Text GLabel 5400 3450 0    50   Output ~ 0
LC0
Text GLabel 5400 3550 0    50   Output ~ 0
LC1
Text GLabel 5400 3650 0    50   Output ~ 0
LC2
Text GLabel 5400 3750 0    50   Output ~ 0
LC3
Wire Wire Line
	5400 3450 5950 3450
Connection ~ 5950 3450
Wire Wire Line
	5850 3550 5400 3550
Connection ~ 5850 3550
Wire Wire Line
	5750 3650 5400 3650
Connection ~ 5750 3650
Wire Wire Line
	5650 3750 5400 3750
Connection ~ 5650 3750
Text GLabel 5400 5000 3    50   Output ~ 0
~E1~
Text GLabel 5500 5000 3    50   Output ~ 0
LCSEL
Text GLabel 5600 5000 3    50   Output ~ 0
UCSEL
Wire Wire Line
	5400 5000 5400 4850
Connection ~ 5400 4850
Wire Wire Line
	5400 4850 6300 4850
Wire Wire Line
	5500 5000 5500 4550
Connection ~ 5500 4550
Wire Wire Line
	5500 4550 6300 4550
Wire Wire Line
	5600 5000 5600 4650
Connection ~ 5600 4650
Wire Wire Line
	5600 4650 5150 4650
$EndSCHEMATC
