EESchema Schematic File Version 4
LIBS:DisplayControlPCA_60112-cache
EELAYER 29 0
EELAYER END
$Descr A4 11693 8268
encoding utf-8
Sheet 12 17
Title ""
Date ""
Rev ""
Comp ""
Comment1 ""
Comment2 ""
Comment3 ""
Comment4 ""
$EndDescr
$Comp
L 74xx:74LS30 U21
U 2 1 5F412F5E
P 1150 1400
F 0 "U21" H 1380 1446 50  0000 L CNN
F 1 "74H30" H 1380 1355 50  0000 L CNN
F 2 "Package_DIP:DIP-14_W7.62mm_LongPads" H 1150 1400 50  0001 C CNN
F 3 "http://www.ti.com/lit/gpn/sn74LS30" H 1150 1400 50  0001 C CNN
	2    1150 1400
	1    0    0    -1  
$EndComp
$Comp
L power:GND #PWR0127
U 1 1 5F41344C
P 1150 1900
F 0 "#PWR0127" H 1150 1650 50  0001 C CNN
F 1 "GND" H 1155 1727 50  0000 C CNN
F 2 "" H 1150 1900 50  0001 C CNN
F 3 "" H 1150 1900 50  0001 C CNN
	1    1150 1900
	1    0    0    -1  
$EndComp
$Comp
L power:VCC #PWR0128
U 1 1 5F4139BA
P 1150 900
F 0 "#PWR0128" H 1150 750 50  0001 C CNN
F 1 "VCC" H 1167 1073 50  0000 C CNN
F 2 "" H 1150 900 50  0001 C CNN
F 3 "" H 1150 900 50  0001 C CNN
	1    1150 900 
	1    0    0    -1  
$EndComp
$Comp
L 74xx:74HC74 U31
U 3 1 5F415B70
P 1150 2900
F 0 "U31" H 1380 2946 50  0000 L CNN
F 1 "74S74" H 1380 2855 50  0000 L CNN
F 2 "Package_DIP:DIP-14_W7.62mm_LongPads" H 1150 2900 50  0001 C CNN
F 3 "74xx/74hc_hct74.pdf" H 1150 2900 50  0001 C CNN
	3    1150 2900
	1    0    0    -1  
$EndComp
$Comp
L 74xx:74HC04 U22
U 7 1 5F41649A
P 1900 1400
F 0 "U22" H 2130 1446 50  0000 L CNN
F 1 "74S04" H 2130 1355 50  0000 L CNN
F 2 "Package_DIP:DIP-14_W7.62mm_LongPads" H 1900 1400 50  0001 C CNN
F 3 "https://assets.nexperia.com/documents/data-sheet/74HC_HCT04.pdf" H 1900 1400 50  0001 C CNN
	7    1900 1400
	1    0    0    -1  
$EndComp
$Comp
L 74xx:74LS32 U32
U 5 1 5F41899A
P 1900 2900
F 0 "U32" H 2130 2946 50  0000 L CNN
F 1 "74LS32" H 2130 2855 50  0000 L CNN
F 2 "Package_DIP:DIP-14_W7.62mm_LongPads" H 1900 2900 50  0001 C CNN
F 3 "http://www.ti.com/lit/gpn/sn74LS32" H 1900 2900 50  0001 C CNN
	5    1900 2900
	1    0    0    -1  
$EndComp
$Comp
L 74xx:74LS00 U23
U 5 1 5F41ABA6
P 2650 1400
F 0 "U23" H 2880 1446 50  0000 L CNN
F 1 "74LS00" H 2880 1355 50  0000 L CNN
F 2 "Package_DIP:DIP-14_W7.62mm_LongPads" H 2650 1400 50  0001 C CNN
F 3 "http://www.ti.com/lit/gpn/sn74ls00" H 2650 1400 50  0001 C CNN
	5    2650 1400
	1    0    0    -1  
$EndComp
$Comp
L 74xx:74LS112 U33
U 3 1 5F41BF41
P 2650 2900
F 0 "U33" H 2880 2946 50  0000 L CNN
F 1 "74S112" H 2880 2855 50  0000 L CNN
F 2 "Package_DIP:DIP-16_W7.62mm_LongPads" H 2650 2900 50  0001 C CNN
F 3 "http://www.ti.com/lit/gpn/sn74LS112" H 2650 2900 50  0001 C CNN
	3    2650 2900
	1    0    0    -1  
$EndComp
$Comp
L 74xx:74LS11 U43
U 4 1 5F41DEBE
P 2650 4400
F 0 "U43" H 2880 4446 50  0000 L CNN
F 1 "74LS11" H 2880 4355 50  0000 L CNN
F 2 "Package_DIP:DIP-14_W7.62mm_LongPads" H 2650 4400 50  0001 C CNN
F 3 "http://www.ti.com/lit/gpn/sn74LS11" H 2650 4400 50  0001 C CNN
	4    2650 4400
	1    0    0    -1  
$EndComp
$Comp
L 74xx:74LS112 U24
U 3 1 5F41E648
P 3400 1400
F 0 "U24" H 3630 1446 50  0000 L CNN
F 1 "74LS112" H 3630 1355 50  0000 L CNN
F 2 "Package_DIP:DIP-16_W7.62mm_LongPads" H 3400 1400 50  0001 C CNN
F 3 "http://www.ti.com/lit/gpn/sn74LS112" H 3400 1400 50  0001 C CNN
	3    3400 1400
	1    0    0    -1  
$EndComp
$Comp
L 74xx:74LS27 U34
U 4 1 5F41F840
P 3350 2900
F 0 "U34" H 3580 2946 50  0000 L CNN
F 1 "74LS27" H 3580 2855 50  0000 L CNN
F 2 "Package_DIP:DIP-14_W7.62mm_LongPads" H 3350 2900 50  0001 C CNN
F 3 "http://www.ti.com/lit/gpn/sn74LS27" H 3350 2900 50  0001 C CNN
	4    3350 2900
	1    0    0    -1  
$EndComp
$Comp
L 74xx:74LS08 U36
U 5 1 5F421ADB
P 4100 2900
F 0 "U36" H 4330 2946 50  0000 L CNN
F 1 "74LS08" H 4330 2855 50  0000 L CNN
F 2 "Package_DIP:DIP-14_W7.62mm_LongPads" H 4100 2900 50  0001 C CNN
F 3 "http://www.ti.com/lit/gpn/sn74LS08" H 4100 2900 50  0001 C CNN
	5    4100 2900
	1    0    0    -1  
$EndComp
$Comp
L 74xx:74LS32 U46
U 5 1 5F422B25
P 4100 4400
F 0 "U46" H 4330 4446 50  0000 L CNN
F 1 "74LS32" H 4330 4355 50  0000 L CNN
F 2 "Package_DIP:DIP-14_W7.62mm_LongPads" H 4100 4400 50  0001 C CNN
F 3 "http://www.ti.com/lit/gpn/sn74LS32" H 4100 4400 50  0001 C CNN
	5    4100 4400
	1    0    0    -1  
$EndComp
$Comp
L 74xx:74LS00 U37
U 5 1 5F43A818
P 4850 2900
F 0 "U37" H 5080 2946 50  0000 L CNN
F 1 "74S00" H 5080 2855 50  0000 L CNN
F 2 "Package_DIP:DIP-14_W7.62mm_LongPads" H 4850 2900 50  0001 C CNN
F 3 "http://www.ti.com/lit/gpn/sn74ls00" H 4850 2900 50  0001 C CNN
	5    4850 2900
	1    0    0    -1  
$EndComp
$Comp
L 74xx:74LS10 U47
U 4 1 5F43D04A
P 4850 4400
F 0 "U47" H 5080 4446 50  0000 L CNN
F 1 "74S10" H 5080 4355 50  0000 L CNN
F 2 "Package_DIP:DIP-14_W7.62mm_LongPads" H 4850 4400 50  0001 C CNN
F 3 "http://www.ti.com/lit/gpn/sn74LS10" H 4850 4400 50  0001 C CNN
	4    4850 4400
	1    0    0    -1  
$EndComp
$Comp
L 74xx:74LS04 U48
U 7 1 5F43E634
P 5600 4400
F 0 "U48" H 5830 4446 50  0000 L CNN
F 1 "74LS04" H 5830 4355 50  0000 L CNN
F 2 "Package_DIP:DIP-14_W7.62mm_LongPads" H 5600 4400 50  0001 C CNN
F 3 "http://www.ti.com/lit/gpn/sn74LS04" H 5600 4400 50  0001 C CNN
	7    5600 4400
	1    0    0    -1  
$EndComp
$Comp
L 74xx:74LS27 U58
U 4 1 5F43F499
P 5600 5900
F 0 "U58" H 5830 5946 50  0000 L CNN
F 1 "74LS27" H 5830 5855 50  0000 L CNN
F 2 "Package_DIP:DIP-14_W7.62mm_LongPads" H 5600 5900 50  0001 C CNN
F 3 "http://www.ti.com/lit/gpn/sn74LS27" H 5600 5900 50  0001 C CNN
	4    5600 5900
	1    0    0    -1  
$EndComp
$Comp
L 74xx:74LS20 U49
U 3 1 5F440A3C
P 6350 4400
F 0 "U49" H 6580 4446 50  0000 L CNN
F 1 "74LS20" H 6580 4355 50  0000 L CNN
F 2 "Package_DIP:DIP-14_W7.62mm_LongPads" H 6350 4400 50  0001 C CNN
F 3 "http://www.ti.com/lit/gpn/sn74LS20" H 6350 4400 50  0001 C CNN
	3    6350 4400
	1    0    0    -1  
$EndComp
$Comp
L 74xx:74LS20 U59
U 3 1 5F441681
P 6350 5900
F 0 "U59" H 6580 5946 50  0000 L CNN
F 1 "74LS20" H 6580 5855 50  0000 L CNN
F 2 "Package_DIP:DIP-14_W7.62mm_LongPads" H 6350 5900 50  0001 C CNN
F 3 "http://www.ti.com/lit/gpn/sn74LS20" H 6350 5900 50  0001 C CNN
	3    6350 5900
	1    0    0    -1  
$EndComp
$Comp
L power:VCC #PWR0129
U 1 1 5F44D531
P 1900 900
F 0 "#PWR0129" H 1900 750 50  0001 C CNN
F 1 "VCC" H 1917 1073 50  0000 C CNN
F 2 "" H 1900 900 50  0001 C CNN
F 3 "" H 1900 900 50  0001 C CNN
	1    1900 900 
	1    0    0    -1  
$EndComp
$Comp
L power:VCC #PWR0130
U 1 1 5F44D8A5
P 2650 900
F 0 "#PWR0130" H 2650 750 50  0001 C CNN
F 1 "VCC" H 2667 1073 50  0000 C CNN
F 2 "" H 2650 900 50  0001 C CNN
F 3 "" H 2650 900 50  0001 C CNN
	1    2650 900 
	1    0    0    -1  
$EndComp
$Comp
L power:VCC #PWR0131
U 1 1 5F44DC15
P 3400 900
F 0 "#PWR0131" H 3400 750 50  0001 C CNN
F 1 "VCC" H 3417 1073 50  0000 C CNN
F 2 "" H 3400 900 50  0001 C CNN
F 3 "" H 3400 900 50  0001 C CNN
	1    3400 900 
	1    0    0    -1  
$EndComp
$Comp
L power:VCC #PWR0132
U 1 1 5F44DF93
P 1150 2400
F 0 "#PWR0132" H 1150 2250 50  0001 C CNN
F 1 "VCC" H 1167 2573 50  0000 C CNN
F 2 "" H 1150 2400 50  0001 C CNN
F 3 "" H 1150 2400 50  0001 C CNN
	1    1150 2400
	1    0    0    -1  
$EndComp
$Comp
L power:VCC #PWR0133
U 1 1 5F459452
P 1900 2400
F 0 "#PWR0133" H 1900 2250 50  0001 C CNN
F 1 "VCC" H 1917 2573 50  0000 C CNN
F 2 "" H 1900 2400 50  0001 C CNN
F 3 "" H 1900 2400 50  0001 C CNN
	1    1900 2400
	1    0    0    -1  
$EndComp
$Comp
L power:VCC #PWR0134
U 1 1 5F45982A
P 2650 2400
F 0 "#PWR0134" H 2650 2250 50  0001 C CNN
F 1 "VCC" H 2667 2573 50  0000 C CNN
F 2 "" H 2650 2400 50  0001 C CNN
F 3 "" H 2650 2400 50  0001 C CNN
	1    2650 2400
	1    0    0    -1  
$EndComp
$Comp
L power:VCC #PWR0135
U 1 1 5F459DF9
P 3350 2400
F 0 "#PWR0135" H 3350 2250 50  0001 C CNN
F 1 "VCC" H 3367 2573 50  0000 C CNN
F 2 "" H 3350 2400 50  0001 C CNN
F 3 "" H 3350 2400 50  0001 C CNN
	1    3350 2400
	1    0    0    -1  
$EndComp
Wire Wire Line
	1150 2500 1150 2400
Wire Wire Line
	2650 2500 2650 2400
Wire Wire Line
	1150 3300 1150 3400
Wire Wire Line
	2650 3300 2650 3400
$Comp
L power:GND #PWR0136
U 1 1 5F45E8FA
P 1900 1900
F 0 "#PWR0136" H 1900 1650 50  0001 C CNN
F 1 "GND" H 1905 1727 50  0000 C CNN
F 2 "" H 1900 1900 50  0001 C CNN
F 3 "" H 1900 1900 50  0001 C CNN
	1    1900 1900
	1    0    0    -1  
$EndComp
$Comp
L power:GND #PWR0137
U 1 1 5F45EC15
P 2650 1900
F 0 "#PWR0137" H 2650 1650 50  0001 C CNN
F 1 "GND" H 2655 1727 50  0000 C CNN
F 2 "" H 2650 1900 50  0001 C CNN
F 3 "" H 2650 1900 50  0001 C CNN
	1    2650 1900
	1    0    0    -1  
$EndComp
$Comp
L power:GND #PWR0138
U 1 1 5F45EE07
P 3400 1900
F 0 "#PWR0138" H 3400 1650 50  0001 C CNN
F 1 "GND" H 3405 1727 50  0000 C CNN
F 2 "" H 3400 1900 50  0001 C CNN
F 3 "" H 3400 1900 50  0001 C CNN
	1    3400 1900
	1    0    0    -1  
$EndComp
$Comp
L power:GND #PWR0139
U 1 1 5F45EFDE
P 1150 3400
F 0 "#PWR0139" H 1150 3150 50  0001 C CNN
F 1 "GND" H 1155 3227 50  0000 C CNN
F 2 "" H 1150 3400 50  0001 C CNN
F 3 "" H 1150 3400 50  0001 C CNN
	1    1150 3400
	1    0    0    -1  
$EndComp
$Comp
L power:GND #PWR0140
U 1 1 5F45F279
P 1900 3400
F 0 "#PWR0140" H 1900 3150 50  0001 C CNN
F 1 "GND" H 1905 3227 50  0000 C CNN
F 2 "" H 1900 3400 50  0001 C CNN
F 3 "" H 1900 3400 50  0001 C CNN
	1    1900 3400
	1    0    0    -1  
$EndComp
$Comp
L power:GND #PWR0141
U 1 1 5F45F54F
P 2650 3400
F 0 "#PWR0141" H 2650 3150 50  0001 C CNN
F 1 "GND" H 2655 3227 50  0000 C CNN
F 2 "" H 2650 3400 50  0001 C CNN
F 3 "" H 2650 3400 50  0001 C CNN
	1    2650 3400
	1    0    0    -1  
$EndComp
$Comp
L power:GND #PWR0142
U 1 1 5F45F7E5
P 3350 3400
F 0 "#PWR0142" H 3350 3150 50  0001 C CNN
F 1 "GND" H 3355 3227 50  0000 C CNN
F 2 "" H 3350 3400 50  0001 C CNN
F 3 "" H 3350 3400 50  0001 C CNN
	1    3350 3400
	1    0    0    -1  
$EndComp
$Comp
L power:VCC #PWR0143
U 1 1 5F465756
P 2650 3900
F 0 "#PWR0143" H 2650 3750 50  0001 C CNN
F 1 "VCC" H 2667 4073 50  0000 C CNN
F 2 "" H 2650 3900 50  0001 C CNN
F 3 "" H 2650 3900 50  0001 C CNN
	1    2650 3900
	1    0    0    -1  
$EndComp
$Comp
L power:GND #PWR0144
U 1 1 5F465BD0
P 2650 4900
F 0 "#PWR0144" H 2650 4650 50  0001 C CNN
F 1 "GND" H 2655 4727 50  0000 C CNN
F 2 "" H 2650 4900 50  0001 C CNN
F 3 "" H 2650 4900 50  0001 C CNN
	1    2650 4900
	1    0    0    -1  
$EndComp
$Comp
L power:VCC #PWR0145
U 1 1 5F46B082
P 4100 2400
F 0 "#PWR0145" H 4100 2250 50  0001 C CNN
F 1 "VCC" H 4117 2573 50  0000 C CNN
F 2 "" H 4100 2400 50  0001 C CNN
F 3 "" H 4100 2400 50  0001 C CNN
	1    4100 2400
	1    0    0    -1  
$EndComp
$Comp
L power:VCC #PWR0146
U 1 1 5F46B3C7
P 4850 2400
F 0 "#PWR0146" H 4850 2250 50  0001 C CNN
F 1 "VCC" H 4867 2573 50  0000 C CNN
F 2 "" H 4850 2400 50  0001 C CNN
F 3 "" H 4850 2400 50  0001 C CNN
	1    4850 2400
	1    0    0    -1  
$EndComp
$Comp
L power:GND #PWR0147
U 1 1 5F46B761
P 4100 3400
F 0 "#PWR0147" H 4100 3150 50  0001 C CNN
F 1 "GND" H 4105 3227 50  0000 C CNN
F 2 "" H 4100 3400 50  0001 C CNN
F 3 "" H 4100 3400 50  0001 C CNN
	1    4100 3400
	1    0    0    -1  
$EndComp
$Comp
L power:GND #PWR0148
U 1 1 5F46BB0B
P 4850 3400
F 0 "#PWR0148" H 4850 3150 50  0001 C CNN
F 1 "GND" H 4855 3227 50  0000 C CNN
F 2 "" H 4850 3400 50  0001 C CNN
F 3 "" H 4850 3400 50  0001 C CNN
	1    4850 3400
	1    0    0    -1  
$EndComp
$Comp
L power:VCC #PWR0149
U 1 1 5F47DCDC
P 4100 3900
F 0 "#PWR0149" H 4100 3750 50  0001 C CNN
F 1 "VCC" H 4117 4073 50  0000 C CNN
F 2 "" H 4100 3900 50  0001 C CNN
F 3 "" H 4100 3900 50  0001 C CNN
	1    4100 3900
	1    0    0    -1  
$EndComp
$Comp
L power:VCC #PWR0150
U 1 1 5F47E003
P 4850 3900
F 0 "#PWR0150" H 4850 3750 50  0001 C CNN
F 1 "VCC" H 4867 4073 50  0000 C CNN
F 2 "" H 4850 3900 50  0001 C CNN
F 3 "" H 4850 3900 50  0001 C CNN
	1    4850 3900
	1    0    0    -1  
$EndComp
$Comp
L power:VCC #PWR0151
U 1 1 5F47FBEA
P 5600 3900
F 0 "#PWR0151" H 5600 3750 50  0001 C CNN
F 1 "VCC" H 5617 4073 50  0000 C CNN
F 2 "" H 5600 3900 50  0001 C CNN
F 3 "" H 5600 3900 50  0001 C CNN
	1    5600 3900
	1    0    0    -1  
$EndComp
$Comp
L power:VCC #PWR0152
U 1 1 5F480061
P 6350 3900
F 0 "#PWR0152" H 6350 3750 50  0001 C CNN
F 1 "VCC" H 6367 4073 50  0000 C CNN
F 2 "" H 6350 3900 50  0001 C CNN
F 3 "" H 6350 3900 50  0001 C CNN
	1    6350 3900
	1    0    0    -1  
$EndComp
$Comp
L power:GND #PWR0153
U 1 1 5F480AD1
P 4100 4900
F 0 "#PWR0153" H 4100 4650 50  0001 C CNN
F 1 "GND" H 4105 4727 50  0000 C CNN
F 2 "" H 4100 4900 50  0001 C CNN
F 3 "" H 4100 4900 50  0001 C CNN
	1    4100 4900
	1    0    0    -1  
$EndComp
$Comp
L power:GND #PWR0154
U 1 1 5F480D8E
P 4850 4900
F 0 "#PWR0154" H 4850 4650 50  0001 C CNN
F 1 "GND" H 4855 4727 50  0000 C CNN
F 2 "" H 4850 4900 50  0001 C CNN
F 3 "" H 4850 4900 50  0001 C CNN
	1    4850 4900
	1    0    0    -1  
$EndComp
$Comp
L power:GND #PWR0155
U 1 1 5F481015
P 5600 4900
F 0 "#PWR0155" H 5600 4650 50  0001 C CNN
F 1 "GND" H 5605 4727 50  0000 C CNN
F 2 "" H 5600 4900 50  0001 C CNN
F 3 "" H 5600 4900 50  0001 C CNN
	1    5600 4900
	1    0    0    -1  
$EndComp
$Comp
L power:GND #PWR0156
U 1 1 5F48120D
P 6350 4900
F 0 "#PWR0156" H 6350 4650 50  0001 C CNN
F 1 "GND" H 6355 4727 50  0000 C CNN
F 2 "" H 6350 4900 50  0001 C CNN
F 3 "" H 6350 4900 50  0001 C CNN
	1    6350 4900
	1    0    0    -1  
$EndComp
$Comp
L power:GND #PWR0157
U 1 1 5F481472
P 5600 6400
F 0 "#PWR0157" H 5600 6150 50  0001 C CNN
F 1 "GND" H 5605 6227 50  0000 C CNN
F 2 "" H 5600 6400 50  0001 C CNN
F 3 "" H 5600 6400 50  0001 C CNN
	1    5600 6400
	1    0    0    -1  
$EndComp
$Comp
L power:GND #PWR0158
U 1 1 5F48182A
P 6350 6400
F 0 "#PWR0158" H 6350 6150 50  0001 C CNN
F 1 "GND" H 6355 6227 50  0000 C CNN
F 2 "" H 6350 6400 50  0001 C CNN
F 3 "" H 6350 6400 50  0001 C CNN
	1    6350 6400
	1    0    0    -1  
$EndComp
$Comp
L power:VCC #PWR0159
U 1 1 5F481B22
P 6350 5400
F 0 "#PWR0159" H 6350 5250 50  0001 C CNN
F 1 "VCC" H 6367 5573 50  0000 C CNN
F 2 "" H 6350 5400 50  0001 C CNN
F 3 "" H 6350 5400 50  0001 C CNN
	1    6350 5400
	1    0    0    -1  
$EndComp
$Comp
L power:VCC #PWR0160
U 1 1 5F481F30
P 5600 5400
F 0 "#PWR0160" H 5600 5250 50  0001 C CNN
F 1 "VCC" H 5617 5573 50  0000 C CNN
F 2 "" H 5600 5400 50  0001 C CNN
F 3 "" H 5600 5400 50  0001 C CNN
	1    5600 5400
	1    0    0    -1  
$EndComp
$Comp
L 74xx:74LS04 U19
U 7 1 5F48543E
P 6350 1400
F 0 "U19" H 6580 1446 50  0000 L CNN
F 1 "74LS04" H 6580 1355 50  0000 L CNN
F 2 "Package_DIP:DIP-14_W7.62mm_LongPads" H 6350 1400 50  0001 C CNN
F 3 "http://www.ti.com/lit/gpn/sn74LS04" H 6350 1400 50  0001 C CNN
	7    6350 1400
	1    0    0    -1  
$EndComp
$Comp
L power:VCC #PWR0161
U 1 1 5F4887DE
P 6350 900
F 0 "#PWR0161" H 6350 750 50  0001 C CNN
F 1 "VCC" H 6367 1073 50  0000 C CNN
F 2 "" H 6350 900 50  0001 C CNN
F 3 "" H 6350 900 50  0001 C CNN
	1    6350 900 
	1    0    0    -1  
$EndComp
$Comp
L power:GND #PWR0162
U 1 1 5F488B56
P 6350 1900
F 0 "#PWR0162" H 6350 1650 50  0001 C CNN
F 1 "GND" H 6355 1727 50  0000 C CNN
F 2 "" H 6350 1900 50  0001 C CNN
F 3 "" H 6350 1900 50  0001 C CNN
	1    6350 1900
	1    0    0    -1  
$EndComp
Wire Wire Line
	3400 900  3400 1000
Wire Wire Line
	3400 1800 3400 1900
$Comp
L power:GND #PWR02
U 1 1 5F5A9F8C
P 700 7500
F 0 "#PWR02" H 700 7250 50  0001 C CNN
F 1 "GND" H 705 7327 50  0000 C CNN
F 2 "" H 700 7500 50  0001 C CNN
F 3 "" H 700 7500 50  0001 C CNN
	1    700  7500
	1    0    0    -1  
$EndComp
$Comp
L power:VCC #PWR01
U 1 1 5F5AAADE
P 700 6900
F 0 "#PWR01" H 700 6750 50  0001 C CNN
F 1 "VCC" H 717 7073 50  0000 C CNN
F 2 "" H 700 6900 50  0001 C CNN
F 3 "" H 700 6900 50  0001 C CNN
	1    700  6900
	1    0    0    -1  
$EndComp
$Comp
L Device:CP1 C1
U 1 1 5F5AB5BD
P 700 7200
F 0 "C1" H 815 7246 50  0000 L CNN
F 1 "39u" H 815 7155 50  0000 L CNN
F 2 "Capacitor_THT:CP_Axial_L11.0mm_D5.0mm_P18.00mm_Horizontal" H 700 7200 50  0001 C CNN
F 3 "~" H 700 7200 50  0001 C CNN
	1    700  7200
	1    0    0    -1  
$EndComp
$Comp
L Device:CP1 C2
U 1 1 5F5ABDCA
P 1050 7200
F 0 "C2" H 1165 7246 50  0000 L CNN
F 1 "39u" H 1165 7155 50  0000 L CNN
F 2 "Capacitor_THT:CP_Axial_L11.0mm_D5.0mm_P18.00mm_Horizontal" H 1050 7200 50  0001 C CNN
F 3 "~" H 1050 7200 50  0001 C CNN
	1    1050 7200
	1    0    0    -1  
$EndComp
$Comp
L Device:CP1 C3
U 1 1 5F5AC17A
P 1400 7200
F 0 "C3" H 1515 7246 50  0000 L CNN
F 1 "39u" H 1515 7155 50  0000 L CNN
F 2 "Capacitor_THT:CP_Axial_L11.0mm_D5.0mm_P18.00mm_Horizontal" H 1400 7200 50  0001 C CNN
F 3 "~" H 1400 7200 50  0001 C CNN
	1    1400 7200
	1    0    0    -1  
$EndComp
$Comp
L Device:C C4
U 1 1 5F5ACE36
P 1750 7200
F 0 "C4" H 1865 7246 50  0000 L CNN
F 1 "10n" H 1865 7155 50  0000 L CNN
F 2 "Capacitor_THT:C_Disc_D5.0mm_W2.5mm_P5.00mm" H 1788 7050 50  0001 C CNN
F 3 "~" H 1750 7200 50  0001 C CNN
	1    1750 7200
	1    0    0    -1  
$EndComp
$Comp
L Device:C C5
U 1 1 5F5AD9EB
P 2100 7200
F 0 "C5" H 2215 7246 50  0000 L CNN
F 1 "10n" H 2215 7155 50  0000 L CNN
F 2 "Capacitor_THT:C_Disc_D5.0mm_W2.5mm_P5.00mm" H 2138 7050 50  0001 C CNN
F 3 "~" H 2100 7200 50  0001 C CNN
	1    2100 7200
	1    0    0    -1  
$EndComp
$Comp
L Device:C C6
U 1 1 5F5B0134
P 2450 7200
F 0 "C6" H 2565 7246 50  0000 L CNN
F 1 "10n" H 2565 7155 50  0000 L CNN
F 2 "Capacitor_THT:C_Disc_D5.0mm_W2.5mm_P5.00mm" H 2488 7050 50  0001 C CNN
F 3 "~" H 2450 7200 50  0001 C CNN
	1    2450 7200
	1    0    0    -1  
$EndComp
$Comp
L Device:C C7
U 1 1 5F5B0559
P 2800 7200
F 0 "C7" H 2915 7246 50  0000 L CNN
F 1 "10n" H 2915 7155 50  0000 L CNN
F 2 "Capacitor_THT:C_Disc_D5.0mm_W2.5mm_P5.00mm" H 2838 7050 50  0001 C CNN
F 3 "~" H 2800 7200 50  0001 C CNN
	1    2800 7200
	1    0    0    -1  
$EndComp
$Comp
L Device:C C8
U 1 1 5F5B0952
P 3150 7200
F 0 "C8" H 3265 7246 50  0000 L CNN
F 1 "10n" H 3265 7155 50  0000 L CNN
F 2 "Capacitor_THT:C_Disc_D5.0mm_W2.5mm_P5.00mm" H 3188 7050 50  0001 C CNN
F 3 "~" H 3150 7200 50  0001 C CNN
	1    3150 7200
	1    0    0    -1  
$EndComp
$Comp
L Device:C C9
U 1 1 5F5B0C50
P 3500 7200
F 0 "C9" H 3615 7246 50  0000 L CNN
F 1 "10n" H 3615 7155 50  0000 L CNN
F 2 "Capacitor_THT:C_Disc_D5.0mm_W2.5mm_P5.00mm" H 3538 7050 50  0001 C CNN
F 3 "~" H 3500 7200 50  0001 C CNN
	1    3500 7200
	1    0    0    -1  
$EndComp
$Comp
L Device:C C10
U 1 1 5F5B0EFB
P 3850 7200
F 0 "C10" H 3965 7246 50  0000 L CNN
F 1 "10n" H 3965 7155 50  0000 L CNN
F 2 "Capacitor_THT:C_Disc_D5.0mm_W2.5mm_P5.00mm" H 3888 7050 50  0001 C CNN
F 3 "~" H 3850 7200 50  0001 C CNN
	1    3850 7200
	1    0    0    -1  
$EndComp
$Comp
L Device:C C11
U 1 1 5F5B126E
P 4200 7200
F 0 "C11" H 4315 7246 50  0000 L CNN
F 1 "10n" H 4315 7155 50  0000 L CNN
F 2 "Capacitor_THT:C_Disc_D5.0mm_W2.5mm_P5.00mm" H 4238 7050 50  0001 C CNN
F 3 "~" H 4200 7200 50  0001 C CNN
	1    4200 7200
	1    0    0    -1  
$EndComp
$Comp
L Device:C C12
U 1 1 5F5B1600
P 4550 7200
F 0 "C12" H 4665 7246 50  0000 L CNN
F 1 "10n" H 4665 7155 50  0000 L CNN
F 2 "Capacitor_THT:C_Disc_D5.0mm_W2.5mm_P5.00mm" H 4588 7050 50  0001 C CNN
F 3 "~" H 4550 7200 50  0001 C CNN
	1    4550 7200
	1    0    0    -1  
$EndComp
$Comp
L Device:C C13
U 1 1 5F5BA425
P 4950 7200
F 0 "C13" H 5065 7246 50  0000 L CNN
F 1 "10n" H 5065 7155 50  0000 L CNN
F 2 "Capacitor_THT:C_Disc_D5.0mm_W2.5mm_P5.00mm" H 4988 7050 50  0001 C CNN
F 3 "~" H 4950 7200 50  0001 C CNN
	1    4950 7200
	1    0    0    -1  
$EndComp
$Comp
L Device:C C14
U 1 1 5F5BA71A
P 5300 7200
F 0 "C14" H 5415 7246 50  0000 L CNN
F 1 "10n" H 5415 7155 50  0000 L CNN
F 2 "Capacitor_THT:C_Disc_D5.0mm_W2.5mm_P5.00mm" H 5338 7050 50  0001 C CNN
F 3 "~" H 5300 7200 50  0001 C CNN
	1    5300 7200
	1    0    0    -1  
$EndComp
$Comp
L Device:C C15
U 1 1 5F5BAC55
P 5650 7200
F 0 "C15" H 5765 7246 50  0000 L CNN
F 1 "10n" H 5765 7155 50  0000 L CNN
F 2 "Capacitor_THT:C_Disc_D5.0mm_W2.5mm_P5.00mm" H 5688 7050 50  0001 C CNN
F 3 "~" H 5650 7200 50  0001 C CNN
	1    5650 7200
	1    0    0    -1  
$EndComp
$Comp
L Device:C C16
U 1 1 5F5BB046
P 6000 7200
F 0 "C16" H 6115 7246 50  0000 L CNN
F 1 "10n" H 6115 7155 50  0000 L CNN
F 2 "Capacitor_THT:C_Disc_D5.0mm_W2.5mm_P5.00mm" H 6038 7050 50  0001 C CNN
F 3 "~" H 6000 7200 50  0001 C CNN
	1    6000 7200
	1    0    0    -1  
$EndComp
Wire Wire Line
	6000 7050 5650 7050
Connection ~ 1050 7050
Wire Wire Line
	1050 7050 700  7050
Connection ~ 1400 7050
Wire Wire Line
	1400 7050 1050 7050
Connection ~ 1750 7050
Wire Wire Line
	1750 7050 1400 7050
Connection ~ 2100 7050
Wire Wire Line
	2100 7050 1750 7050
Connection ~ 2450 7050
Wire Wire Line
	2450 7050 2100 7050
Connection ~ 2800 7050
Wire Wire Line
	2800 7050 2450 7050
Connection ~ 3150 7050
Wire Wire Line
	3150 7050 2800 7050
Connection ~ 3500 7050
Wire Wire Line
	3500 7050 3150 7050
Connection ~ 3850 7050
Wire Wire Line
	3850 7050 3500 7050
Connection ~ 4200 7050
Wire Wire Line
	4200 7050 3850 7050
Connection ~ 4550 7050
Wire Wire Line
	4550 7050 4200 7050
Connection ~ 4950 7050
Wire Wire Line
	4950 7050 4550 7050
Connection ~ 5300 7050
Wire Wire Line
	5300 7050 4950 7050
Connection ~ 5650 7050
Wire Wire Line
	5650 7050 5300 7050
Wire Wire Line
	700  7050 700  6900
Connection ~ 700  7050
Wire Wire Line
	700  7500 700  7350
Wire Wire Line
	700  7350 1050 7350
Connection ~ 700  7350
Connection ~ 1050 7350
Wire Wire Line
	1050 7350 1400 7350
Connection ~ 1400 7350
Wire Wire Line
	1400 7350 1750 7350
Connection ~ 1750 7350
Wire Wire Line
	1750 7350 2100 7350
Connection ~ 2100 7350
Wire Wire Line
	2100 7350 2450 7350
Connection ~ 2450 7350
Wire Wire Line
	2450 7350 2800 7350
Connection ~ 2800 7350
Wire Wire Line
	2800 7350 3150 7350
Connection ~ 3150 7350
Wire Wire Line
	3150 7350 3500 7350
Connection ~ 3500 7350
Wire Wire Line
	3500 7350 3850 7350
Connection ~ 3850 7350
Wire Wire Line
	3850 7350 4200 7350
Connection ~ 4200 7350
Wire Wire Line
	4200 7350 4550 7350
Connection ~ 4550 7350
Wire Wire Line
	4550 7350 4950 7350
Connection ~ 4950 7350
Wire Wire Line
	4950 7350 5300 7350
Connection ~ 5300 7350
Wire Wire Line
	5300 7350 5650 7350
Connection ~ 5650 7350
Wire Wire Line
	5650 7350 6000 7350
$Comp
L 74xx:74LS04 U52
U 7 1 5F543BA5
P 1900 5900
F 0 "U52" H 2130 5946 50  0000 L CNN
F 1 "74LS04" H 2130 5855 50  0000 L CNN
F 2 "Package_DIP:DIP-14_W7.62mm_LongPads" H 1900 5900 50  0001 C CNN
F 3 "http://www.ti.com/lit/gpn/sn74LS04" H 1900 5900 50  0001 C CNN
	7    1900 5900
	1    0    0    -1  
$EndComp
$Comp
L power:VCC #PWR0181
U 1 1 5F544D80
P 1900 5400
F 0 "#PWR0181" H 1900 5250 50  0001 C CNN
F 1 "VCC" H 1917 5573 50  0000 C CNN
F 2 "" H 1900 5400 50  0001 C CNN
F 3 "" H 1900 5400 50  0001 C CNN
	1    1900 5400
	1    0    0    -1  
$EndComp
$Comp
L power:GND #PWR0182
U 1 1 5F545347
P 1900 6400
F 0 "#PWR0182" H 1900 6150 50  0001 C CNN
F 1 "GND" H 1905 6227 50  0000 C CNN
F 2 "" H 1900 6400 50  0001 C CNN
F 3 "" H 1900 6400 50  0001 C CNN
	1    1900 6400
	1    0    0    -1  
$EndComp
$EndSCHEMATC
