EESchema Schematic File Version 4
LIBS:DisplayControlPCA_60112-cache
EELAYER 29 0
EELAYER END
$Descr A4 11693 8268
encoding utf-8
Sheet 9 17
Title ""
Date ""
Rev ""
Comp ""
Comment1 ""
Comment2 ""
Comment3 ""
Comment4 ""
$EndDescr
$Comp
L 74xx:74LS163 U42
U 1 1 5F4623D8
P 4400 2700
F 0 "U42" H 4200 3350 50  0000 C CNN
F 1 "74163" H 4600 3350 50  0000 C CNN
F 2 "Package_DIP:DIP-16_W7.62mm_LongPads" H 4400 2700 50  0001 C CNN
F 3 "http://www.ti.com/lit/gpn/sn74LS163" H 4400 2700 50  0001 C CNN
	1    4400 2700
	1    0    0    -1  
$EndComp
$Comp
L 74xx:74LS112 U24
U 2 1 5F462D0A
P 7000 3400
F 0 "U24" H 6800 3650 50  0000 C CNN
F 1 "74LS112" H 7200 3650 50  0000 C CNN
F 2 "Package_DIP:DIP-16_W7.62mm_LongPads" H 7000 3400 50  0001 C CNN
F 3 "http://www.ti.com/lit/gpn/sn74LS112" H 7000 3400 50  0001 C CNN
	2    7000 3400
	1    0    0    -1  
$EndComp
Text HLabel 2050 3800 0    50   Input ~ 0
~14~
$Comp
L power:VCC #PWR0114
U 1 1 5F3ED9A9
P 4400 1900
F 0 "#PWR0114" H 4400 1750 50  0001 C CNN
F 1 "VCC" H 4417 2073 50  0000 C CNN
F 2 "" H 4400 1900 50  0001 C CNN
F 3 "" H 4400 1900 50  0001 C CNN
	1    4400 1900
	1    0    0    -1  
$EndComp
$Comp
L power:GND #PWR0115
U 1 1 5F3EDE51
P 4400 3500
F 0 "#PWR0115" H 4400 3250 50  0001 C CNN
F 1 "GND" H 4405 3327 50  0000 C CNN
F 2 "" H 4400 3500 50  0001 C CNN
F 3 "" H 4400 3500 50  0001 C CNN
	1    4400 3500
	1    0    0    -1  
$EndComp
$Comp
L 74xx:74LS00 U23
U 2 1 5F3EE26D
P 3300 4350
F 0 "U23" H 3300 4150 50  0000 C CNN
F 1 "74LS00" H 3300 4600 50  0000 C CNN
F 2 "Package_DIP:DIP-14_W7.62mm_LongPads" H 3300 4350 50  0001 C CNN
F 3 "http://www.ti.com/lit/gpn/sn74ls00" H 3300 4350 50  0001 C CNN
	2    3300 4350
	1    0    0    1   
$EndComp
$Comp
L 74xx:74LS08 U36
U 1 1 5F3EF77A
P 5700 4450
F 0 "U36" H 5650 4250 50  0000 C CNN
F 1 "74LS08" H 5700 4650 50  0000 C CNN
F 2 "Package_DIP:DIP-14_W7.62mm_LongPads" H 5700 4450 50  0001 C CNN
F 3 "http://www.ti.com/lit/gpn/sn74LS08" H 5700 4450 50  0001 C CNN
	1    5700 4450
	1    0    0    1   
$EndComp
$Comp
L 74xx:74HC04 U22
U 5 1 5F3F3DF1
P 4400 4350
F 0 "U22" H 4450 4500 50  0000 C CNN
F 1 "74S04" H 4400 4100 50  0000 C CNN
F 2 "Package_DIP:DIP-14_W7.62mm_LongPads" H 4400 4350 50  0001 C CNN
F 3 "https://assets.nexperia.com/documents/data-sheet/74HC_HCT04.pdf" H 4400 4350 50  0001 C CNN
	5    4400 4350
	1    0    0    -1  
$EndComp
$Comp
L 74xx:74HC04 U22
U 4 1 5F3F44E1
P 6050 3400
F 0 "U22" H 6050 3600 50  0000 C CNN
F 1 "74S04" H 6050 3200 50  0000 C CNN
F 2 "Package_DIP:DIP-14_W7.62mm_LongPads" H 6050 3400 50  0001 C CNN
F 3 "https://assets.nexperia.com/documents/data-sheet/74HC_HCT04.pdf" H 6050 3400 50  0001 C CNN
	4    6050 3400
	1    0    0    -1  
$EndComp
Wire Wire Line
	3600 4350 3800 4350
Wire Wire Line
	4700 4350 5050 4350
Wire Wire Line
	5400 4550 5050 4550
Wire Wire Line
	2900 4550 2900 4450
Wire Wire Line
	2900 4450 3000 4450
Wire Wire Line
	3900 2900 3800 2900
Wire Wire Line
	3800 2900 3800 2800
Wire Wire Line
	3800 2800 3900 2800
Wire Wire Line
	3900 2200 3800 2200
Wire Wire Line
	3800 2200 3800 2300
Wire Wire Line
	3800 2300 3900 2300
Wire Wire Line
	3800 2300 3800 2400
Wire Wire Line
	3800 2400 3900 2400
Connection ~ 3800 2300
Wire Wire Line
	3800 2400 3800 2500
Wire Wire Line
	3800 2500 3900 2500
Connection ~ 3800 2400
Wire Wire Line
	6700 3300 6550 3300
Wire Wire Line
	6550 3300 6550 2700
Wire Wire Line
	6550 2700 4900 2700
Wire Wire Line
	6350 3400 6450 3400
Wire Wire Line
	5750 3400 5500 3400
Wire Wire Line
	5500 3400 5500 3800
Wire Wire Line
	4900 2200 7850 2200
Text HLabel 7850 2200 2    50   Output ~ 0
A
Text HLabel 7850 2300 2    50   Output ~ 0
B
Text HLabel 7850 2400 2    50   Output ~ 0
C
Text HLabel 7850 2500 2    50   Output ~ 0
D
Text HLabel 7850 3300 2    50   Output ~ 0
E
Wire Wire Line
	7850 3300 7500 3300
Wire Wire Line
	7850 2300 4900 2300
Wire Wire Line
	4900 2400 7850 2400
Wire Wire Line
	7850 2500 5100 2500
Wire Wire Line
	3700 3000 3700 3800
Wire Wire Line
	3700 3000 3900 3000
Connection ~ 3700 3800
Wire Wire Line
	3700 3800 5500 3800
Wire Wire Line
	3900 3200 3800 3200
Wire Wire Line
	3800 3200 3800 4350
Connection ~ 3800 4350
Wire Wire Line
	3800 4350 4100 4350
Wire Wire Line
	2050 3800 3700 3800
Wire Wire Line
	3900 2700 2850 2700
$Comp
L Connector:TestPoint TP1
U 1 1 5F4015DD
P 2750 2700
F 0 "TP1" V 2850 2850 50  0000 C CNN
F 1 "CLR" V 2650 2800 50  0000 C CNN
F 2 "Connector_PinHeader_2.54mm:PinHeader_1x01_P2.54mm_Vertical" H 2950 2700 50  0001 C CNN
F 3 "~" H 2950 2700 50  0001 C CNN
	1    2750 2700
	0    -1   -1   0   
$EndComp
Text GLabel 2850 2450 1    50   Input ~ 0
R1D
Wire Wire Line
	2850 2450 2850 2700
Connection ~ 2850 2700
Wire Wire Line
	2850 2700 2750 2700
Wire Wire Line
	7000 3700 7000 4850
Wire Wire Line
	7000 4850 2050 4850
Text HLabel 2050 4850 0    50   Input ~ 0
TPON
Wire Wire Line
	6000 4450 6550 4450
Wire Wire Line
	6550 4450 6550 3500
Wire Wire Line
	6550 3500 6700 3500
$Comp
L power:VCC #PWR0116
U 1 1 5F40616C
P 7000 3100
F 0 "#PWR0116" H 7000 2950 50  0001 C CNN
F 1 "VCC" H 7017 3273 50  0000 C CNN
F 2 "" H 7000 3100 50  0001 C CNN
F 3 "" H 7000 3100 50  0001 C CNN
	1    7000 3100
	1    0    0    -1  
$EndComp
NoConn ~ 7300 3500
$Comp
L power:GND #PWR0117
U 1 1 5F40833F
P 3800 2500
F 0 "#PWR0117" H 3800 2250 50  0001 C CNN
F 1 "GND" H 3650 2450 50  0000 C CNN
F 2 "" H 3800 2500 50  0001 C CNN
F 3 "" H 3800 2500 50  0001 C CNN
	1    3800 2500
	1    0    0    -1  
$EndComp
Connection ~ 3800 2500
Text GLabel 3300 2800 0    50   Input ~ 0
*
Wire Wire Line
	3300 2800 3800 2800
Connection ~ 3800 2800
Wire Wire Line
	5050 4350 5050 4050
Wire Wire Line
	5050 4050 7850 4050
Connection ~ 5050 4350
Wire Wire Line
	5050 4350 5400 4350
Wire Wire Line
	3000 4250 2900 4250
Wire Wire Line
	2900 4250 2900 3900
Wire Wire Line
	2900 3900 5100 3900
Wire Wire Line
	5100 3900 5100 2500
Connection ~ 5100 2500
Wire Wire Line
	5100 2500 4900 2500
Wire Wire Line
	5050 4550 5050 4700
Wire Wire Line
	5050 4700 7500 4700
Wire Wire Line
	7500 4700 7500 3300
Connection ~ 5050 4550
Wire Wire Line
	5050 4550 2900 4550
Connection ~ 7500 3300
Wire Wire Line
	7500 3300 7300 3300
Text HLabel 7850 3800 2    50   Output ~ 0
14
Wire Wire Line
	7850 3800 6450 3800
Wire Wire Line
	6450 3800 6450 3400
Connection ~ 6450 3400
Wire Wire Line
	6450 3400 6700 3400
Text HLabel 7850 4050 2    50   Output ~ 0
VBLNK
$EndSCHEMATC
