EESchema Schematic File Version 4
LIBS:DisplayControlPCA_60112-cache
EELAYER 29 0
EELAYER END
$Descr A4 11693 8268
encoding utf-8
Sheet 9 10
Title ""
Date ""
Rev ""
Comp ""
Comment1 ""
Comment2 ""
Comment3 ""
Comment4 ""
$EndDescr
$Comp
L power:VCC #PWR0172
U 1 1 5F441C81
P 4150 2350
F 0 "#PWR0172" H 4150 2200 50  0001 C CNN
F 1 "VCC" H 4167 2523 50  0000 C CNN
F 2 "" H 4150 2350 50  0001 C CNN
F 3 "" H 4150 2350 50  0001 C CNN
	1    4150 2350
	1    0    0    -1  
$EndComp
$Comp
L power:GND #PWR0174
U 1 1 5F442A1C
P 4150 4550
F 0 "#PWR0174" H 4150 4300 50  0001 C CNN
F 1 "GND" H 4155 4377 50  0000 C CNN
F 2 "" H 4150 4550 50  0001 C CNN
F 3 "" H 4150 4550 50  0001 C CNN
	1    4150 4550
	1    0    0    -1  
$EndComp
Wire Wire Line
	4550 3250 4650 3250
Wire Wire Line
	4650 3250 4650 5450
Wire Wire Line
	4550 3150 4750 3150
Wire Wire Line
	4750 3150 4750 5350
Wire Wire Line
	4550 3050 4850 3050
Wire Wire Line
	4850 3050 4850 5250
Wire Wire Line
	4550 2950 4950 2950
Wire Wire Line
	4950 2950 4950 5150
Wire Wire Line
	4550 2850 5050 2850
Wire Wire Line
	5050 2850 5050 5050
Wire Wire Line
	4550 2750 5150 2750
Wire Wire Line
	5150 2750 5150 4950
Wire Wire Line
	4550 2650 5250 2650
Wire Wire Line
	5250 2650 5250 4850
Wire Wire Line
	4550 2550 5350 2550
Wire Wire Line
	5350 2550 5350 4750
Wire Wire Line
	3750 3450 2750 3450
Wire Wire Line
	3750 2550 3650 2550
Wire Wire Line
	3650 2550 3650 1100
Wire Wire Line
	3550 2650 3750 2650
Wire Wire Line
	3750 2750 3450 2750
Wire Wire Line
	3750 2850 3350 2850
Wire Wire Line
	3750 2950 3250 2950
Wire Wire Line
	3750 3050 3150 3050
Wire Wire Line
	3750 3150 3050 3150
Wire Wire Line
	3750 3250 2950 3250
Wire Wire Line
	3750 3350 2850 3350
Wire Wire Line
	2750 3450 2750 2000
Wire Wire Line
	2850 3350 2850 1900
Wire Wire Line
	2950 3250 2950 1800
Wire Wire Line
	3050 1700 3050 3150
Wire Wire Line
	3150 3050 3150 1600
Wire Wire Line
	3250 2950 3250 1500
Wire Wire Line
	3350 2850 3350 1400
Wire Wire Line
	3450 2750 3450 1300
Wire Wire Line
	3550 2650 3550 1200
Wire Wire Line
	3650 1100 1800 1100
Wire Wire Line
	3550 1200 1800 1200
Wire Wire Line
	3450 1300 1800 1300
Wire Wire Line
	3350 1400 1800 1400
Wire Wire Line
	3250 1500 1800 1500
Wire Wire Line
	3150 1600 1800 1600
Wire Wire Line
	3050 1700 1800 1700
Wire Wire Line
	2850 1900 1800 1900
Wire Wire Line
	2750 2000 1800 2000
Wire Wire Line
	1800 1800 2950 1800
$Comp
L power:GND #PWR0176
U 1 1 5F490DA0
P 3650 4500
F 0 "#PWR0176" H 3650 4250 50  0001 C CNN
F 1 "GND" H 3655 4327 50  0000 C CNN
F 2 "" H 3650 4500 50  0001 C CNN
F 3 "" H 3650 4500 50  0001 C CNN
	1    3650 4500
	1    0    0    -1  
$EndComp
Wire Wire Line
	3750 3950 3650 3950
Text HLabel 1800 1100 0    50   Input ~ 0
A0
Text HLabel 1800 1200 0    50   Input ~ 0
A1
Text HLabel 1800 1300 0    50   Input ~ 0
A2
Text HLabel 1800 1400 0    50   Input ~ 0
A3
Text HLabel 1800 1500 0    50   Input ~ 0
A4
Text HLabel 1800 1600 0    50   Input ~ 0
A5
Text HLabel 1800 1700 0    50   Input ~ 0
A6
Text HLabel 1800 1800 0    50   Input ~ 0
A7
Text HLabel 1800 1900 0    50   Input ~ 0
A8
Text HLabel 1800 2000 0    50   Input ~ 0
A9
Text HLabel 9550 4750 2    50   Output ~ 0
~DBIT0~
Text HLabel 9550 4850 2    50   Output ~ 0
~DBIT1~
Text HLabel 9550 4950 2    50   Output ~ 0
~DBIT2~
Text HLabel 9550 5050 2    50   Output ~ 0
~DBIT3~
Text HLabel 9550 5150 2    50   Output ~ 0
~DBIT4~
Text HLabel 9550 5250 2    50   Output ~ 0
~DBIT5~
Text HLabel 9550 5350 2    50   Output ~ 0
~DBIT6~
Text HLabel 9550 5450 2    50   Output ~ 0
~DBIT7~
$Comp
L Memory_EPROM:27256 U28
U 1 1 5F4BB8BC
P 4150 3450
F 0 "U28" H 3900 4500 50  0000 C CNN
F 1 "27256" H 4350 4500 50  0000 C CNN
F 2 "Package_DIP:DIP-28_W15.24mm" H 4150 3450 50  0001 C CNN
F 3 "http://datasheet.octopart.com/D27256-2-Intel-datasheet-17852618.pdf" H 4150 3450 50  0001 C CNN
	1    4150 3450
	1    0    0    -1  
$EndComp
Wire Wire Line
	4650 5450 9550 5450
Wire Wire Line
	4750 5350 9550 5350
Wire Wire Line
	4850 5250 9550 5250
Wire Wire Line
	4950 5150 9550 5150
Wire Wire Line
	5050 5050 9550 5050
Wire Wire Line
	5150 4950 9550 4950
Wire Wire Line
	5250 4850 9550 4850
Wire Wire Line
	5350 4750 9550 4750
Text HLabel 1800 2100 0    50   Input ~ 0
A10
Text HLabel 1800 2200 0    50   Input ~ 0
A11
Text HLabel 1800 2300 0    50   Input ~ 0
A12
Wire Wire Line
	3650 3950 3650 3850
Wire Wire Line
	3650 3850 3750 3850
Connection ~ 3650 3950
Wire Wire Line
	3650 3950 3650 4250
Wire Wire Line
	3750 4350 3650 4350
Connection ~ 3650 4350
Wire Wire Line
	3650 4350 3650 4500
Wire Wire Line
	3750 4250 3650 4250
Connection ~ 3650 4250
Wire Wire Line
	3650 4250 3650 4350
Wire Wire Line
	3750 4150 3500 4150
Wire Wire Line
	3500 4150 3500 4000
$Comp
L power:VCC #PWR0113
U 1 1 5F4CD568
P 3500 4000
F 0 "#PWR0113" H 3500 3850 50  0001 C CNN
F 1 "VCC" H 3517 4173 50  0000 C CNN
F 2 "" H 3500 4000 50  0001 C CNN
F 3 "" H 3500 4000 50  0001 C CNN
	1    3500 4000
	1    0    0    -1  
$EndComp
Wire Wire Line
	3750 3550 2650 3550
Wire Wire Line
	2650 3550 2650 2100
Wire Wire Line
	2650 2100 1800 2100
Wire Wire Line
	1800 2200 2550 2200
Wire Wire Line
	2550 2200 2550 3650
Wire Wire Line
	2550 3650 3750 3650
Wire Wire Line
	3750 3750 2450 3750
Wire Wire Line
	2450 3750 2450 2300
Wire Wire Line
	2450 2300 1800 2300
$EndSCHEMATC
