EESchema Schematic File Version 4
LIBS:DisplayControlPCA_60112-cache
EELAYER 29 0
EELAYER END
$Descr A3 16535 11693
encoding utf-8
Sheet 1 10
Title "Display Control PCA Schematic Diagram"
Date ""
Rev ""
Comp ""
Comment1 ""
Comment2 ""
Comment3 ""
Comment4 ""
$EndDescr
$Comp
L 74xx:74HC04 U22
U 3 1 5F444D72
P 1300 1350
F 0 "U22" H 1300 1550 50  0000 C CNN
F 1 "74S04" H 1350 1150 50  0000 C CNN
F 2 "Package_DIP:DIP-14_W7.62mm_LongPads" H 1300 1350 50  0001 C CNN
F 3 "https://assets.nexperia.com/documents/data-sheet/74HC_HCT04.pdf" H 1300 1350 50  0001 C CNN
	3    1300 1350
	1    0    0    -1  
$EndComp
$Sheet
S 8900 3450 850  1650
U 5F4524D1
F0 "Parallel to Serial Converter" 50
F1 "ParToSer.sch" 50
F2 "A" I L 8900 3550 50 
F3 "B" I L 8900 3650 50 
F4 "C" I L 8900 3750 50 
F5 "D" I L 8900 3850 50 
F6 "E" I L 8900 3950 50 
F7 "F" I L 8900 4050 50 
F8 "G" I L 8900 4150 50 
F9 "~LOAD~" I L 8900 4350 50 
F10 "SHFT" I L 8900 4450 50 
F11 "TPON" I L 8900 4650 50 
F12 "~BITS~" O R 9750 3550 50 
$EndSheet
$Comp
L Device:R R3
U 1 1 5F456630
P 13150 9100
F 0 "R3" H 13220 9146 50  0000 L CNN
F 1 "1k" H 13220 9055 50  0000 L CNN
F 2 "Resistor_THT:R_Axial_DIN0207_L6.3mm_D2.5mm_P10.16mm_Horizontal" V 13080 9100 50  0001 C CNN
F 3 "~" H 13150 9100 50  0001 C CNN
	1    13150 9100
	1    0    0    -1  
$EndComp
$Comp
L power:VCC #PWR0104
U 1 1 5F4567BA
P 13150 8950
F 0 "#PWR0104" H 13150 8800 50  0001 C CNN
F 1 "VCC" H 13167 9123 50  0000 C CNN
F 2 "" H 13150 8950 50  0001 C CNN
F 3 "" H 13150 8950 50  0001 C CNN
	1    13150 8950
	1    0    0    -1  
$EndComp
Wire Wire Line
	13150 9250 13150 9350
Text GLabel 13150 9350 3    50   Output ~ 0
*
Wire Wire Line
	8900 4350 8750 4350
Wire Wire Line
	8900 4450 8650 4450
Wire Wire Line
	2300 1450 2200 1450
$Sheet
S 4550 6050 900  2050
U 5F45E4DA
F0 "Scan Line Counter" 50
F1 "ScanCount.sch" 50
F2 "TPON" I L 4550 6150 50 
F3 "VRT_CLK" I L 4550 6250 50 
F4 "LC0" O R 5450 6150 50 
F5 "LC1" O R 5450 6250 50 
F6 "LC2" O R 5450 6350 50 
F7 "LC3" O R 5450 6450 50 
F8 "~L14~" O R 5450 6550 50 
F9 "L11" O R 5450 6650 50 
F10 "~L0~" O R 5450 6750 50 
F11 "CLEN" O R 5450 6850 50 
F12 "~ADDR4~" I L 4550 7200 50 
F13 "~ADDR5~" I L 4550 7300 50 
F14 "~ADDR9~" I L 4550 7400 50 
F15 "~ADDR10~" I L 4550 7500 50 
F16 "~ADDR11~" I L 4550 7600 50 
F17 "~I_O~" I L 4550 7800 50 
F18 "~WRT~" I L 4550 7900 50 
F19 "~REQ~" I L 4550 8000 50 
F20 "~CYS~" O R 5450 7200 50 
F21 "~CXS~" O R 5450 7300 50 
$EndSheet
Wire Wire Line
	5450 6150 5950 6150
Wire Wire Line
	5450 6350 5750 6350
$Comp
L 74xx:74LS04 U19
U 1 1 5F442C13
P 1800 5700
F 0 "U19" H 1850 5850 50  0000 C CNN
F 1 "74LS04" H 1900 5550 50  0000 C CNN
F 2 "Package_DIP:DIP-14_W7.62mm_LongPads" H 1800 5700 50  0001 C CNN
F 3 "http://www.ti.com/lit/gpn/sn74LS04" H 1800 5700 50  0001 C CNN
	1    1800 5700
	1    0    0    -1  
$EndComp
$Comp
L 74xx:74LS04 U19
U 2 1 5F442E25
P 1800 6150
F 0 "U19" H 1850 6300 50  0000 C CNN
F 1 "74LS04" H 1900 6000 50  0000 C CNN
F 2 "Package_DIP:DIP-14_W7.62mm_LongPads" H 1800 6150 50  0001 C CNN
F 3 "http://www.ti.com/lit/gpn/sn74LS04" H 1800 6150 50  0001 C CNN
	2    1800 6150
	1    0    0    -1  
$EndComp
$Comp
L 74xx:74LS04 U19
U 3 1 5F443783
P 1800 5250
F 0 "U19" H 1850 5400 50  0000 C CNN
F 1 "74LS04" H 1950 5150 50  0000 C CNN
F 2 "Package_DIP:DIP-14_W7.62mm_LongPads" H 1800 5250 50  0001 C CNN
F 3 "http://www.ti.com/lit/gpn/sn74LS04" H 1800 5250 50  0001 C CNN
	3    1800 5250
	1    0    0    -1  
$EndComp
$Comp
L 74xx:74LS04 U19
U 4 1 5F443EAB
P 1800 3900
F 0 "U19" H 1900 4050 50  0000 C CNN
F 1 "74LS04" H 1950 3750 50  0000 C CNN
F 2 "Package_DIP:DIP-14_W7.62mm_LongPads" H 1800 3900 50  0001 C CNN
F 3 "http://www.ti.com/lit/gpn/sn74LS04" H 1800 3900 50  0001 C CNN
	4    1800 3900
	1    0    0    -1  
$EndComp
$Comp
L 74xx:74LS04 U19
U 5 1 5F4441ED
P 1800 4350
F 0 "U19" H 1900 4500 50  0000 C CNN
F 1 "74LS04" H 2000 4250 50  0000 C CNN
F 2 "Package_DIP:DIP-14_W7.62mm_LongPads" H 1800 4350 50  0001 C CNN
F 3 "http://www.ti.com/lit/gpn/sn74LS04" H 1800 4350 50  0001 C CNN
	5    1800 4350
	1    0    0    -1  
$EndComp
$Comp
L 74xx:74LS04 U19
U 6 1 5F444A4B
P 1800 4800
F 0 "U19" H 1900 4950 50  0000 C CNN
F 1 "74LS04" H 1950 4700 50  0000 C CNN
F 2 "Package_DIP:DIP-14_W7.62mm_LongPads" H 1800 4800 50  0001 C CNN
F 3 "http://www.ti.com/lit/gpn/sn74LS04" H 1800 4800 50  0001 C CNN
	6    1800 4800
	1    0    0    -1  
$EndComp
Wire Wire Line
	1500 5250 1100 5250
Wire Wire Line
	1500 4350 1100 4350
Wire Wire Line
	1500 5700 1100 5700
Wire Wire Line
	1500 4800 1100 4800
Wire Wire Line
	1500 3900 1100 3900
$Sheet
S 11100 2550 1050 1400
U 5F4617C4
F0 "Modulo 25 Row Counter" 50
F1 "RowCounter§.sch" 50
F2 "~14~" I L 11100 2650 50 
F3 "A" O R 12150 2650 50 
F4 "B" O R 12150 2750 50 
F5 "C" O R 12150 2850 50 
F6 "D" O R 12150 2950 50 
F7 "E" O R 12150 3050 50 
F8 "TPON" I L 11100 2750 50 
F9 "VBLNK" O R 12150 3350 50 
F10 "~L0~" I L 11100 2950 50 
F11 "~103~" I L 11100 2850 50 
F12 "EVEN" O R 12150 3450 50 
F13 "GVS" O R 12150 3550 50 
F14 "INTSET" O R 12150 3650 50 
F15 "VDR" O R 12150 3750 50 
$EndSheet
Wire Wire Line
	10900 2650 11100 2650
$Sheet
S 10600 10800 1050 200 
U 5F40FD50
F0 "Terminal Bus (P1)" 50
F1 "BUS_P1.sch" 50
$EndSheet
Text GLabel 4100 7200 0    50   Input ~ 0
~ADDR4~
Text GLabel 4100 7300 0    50   Input ~ 0
~ADDR5~
Text GLabel 4100 7400 0    50   Input ~ 0
~ADDR9~
Text GLabel 4100 7500 0    50   Input ~ 0
~ADDR10~
Text GLabel 4100 7600 0    50   Input ~ 0
~ADDR11~
Text GLabel 4100 7800 0    50   Input ~ 0
~IO~
Text GLabel 4100 7900 0    50   Input ~ 0
~WRITE~
Text GLabel 4100 8000 0    50   Input ~ 0
~REQ~
$Sheet
S 8900 10800 1250 200 
U 5F40E4DD
F0 "IC power symbols" 50
F1 "Power.sch" 50
$EndSheet
$Sheet
S 10600 10400 1050 200 
U 5F494B71
F0 "Display Bus (P3)" 50
F1 "BUS_P3.sch" 50
$EndSheet
Text GLabel 1000 1350 0    50   Input ~ 0
DSPY_CLK
Text GLabel 1100 3900 0    50   Input ~ 0
~BIT0~
Text GLabel 1100 4800 0    50   Input ~ 0
~BIT2~
Text GLabel 1100 5700 0    50   Input ~ 0
~BIT4~
Text GLabel 1100 6150 0    50   Input ~ 0
~BIT5~
Text GLabel 1100 4350 0    50   Input ~ 0
~BIT1~
Text GLabel 1100 5250 0    50   Input ~ 0
~BIT3~
Text GLabel 1100 6650 0    50   Input ~ 0
~BIT6~
Wire Wire Line
	3200 1300 3400 1300
Wire Wire Line
	3200 1400 3400 1400
Wire Wire Line
	3200 1500 3400 1500
Wire Wire Line
	3200 1600 3400 1600
Wire Wire Line
	3200 1700 3300 1700
Text GLabel 3400 1300 2    50   Output ~ 0
~D0~
Text GLabel 3400 1400 2    50   Output ~ 0
~D1~
Text GLabel 3400 1500 2    50   Output ~ 0
~D2~
Text GLabel 3400 1600 2    50   Output ~ 0
~D6~
Text GLabel 3400 1700 2    50   Output ~ 0
~D8~
Wire Wire Line
	4550 6250 4100 6250
Text GLabel 4100 6250 0    50   Input ~ 0
VRT_CLK
Text GLabel 6200 6850 2    50   Output ~ 0
CLEN
Text GLabel 6200 6650 2    50   Output ~ 0
L11
Text GLabel 12750 3550 2    50   Output ~ 0
GVS
Text GLabel 12750 3650 2    50   Output ~ 0
INTSET
Text GLabel 12750 3450 2    50   Output ~ 0
EVEN
Text GLabel 12750 3750 2    50   Output ~ 0
VDR
Text GLabel 10600 3800 0    50   Input ~ 0
~103~
Text GLabel 7700 7300 2    50   Output ~ 0
~CXS~
Text GLabel 7700 7200 2    50   Output ~ 0
~CYS~
Wire Wire Line
	9750 3550 9950 3550
Text GLabel 9950 3550 2    50   Output ~ 0
~BITS~
Text GLabel 12750 3350 2    50   Output ~ 0
VBLNK
Text GLabel 13900 6750 0    50   Input ~ 0
PWR_ON
Text GLabel 13900 6000 0    50   Input ~ 0
~BUS0~
Text GLabel 13900 6100 0    50   Input ~ 0
~BUS1~
Text GLabel 13900 6200 0    50   Input ~ 0
~BUS2~
Text GLabel 13900 6300 0    50   Input ~ 0
~BUS3~
Text GLabel 13900 6400 0    50   Input ~ 0
~BUS4~
Text GLabel 13900 6500 0    50   Input ~ 0
~BUS7~
Wire Wire Line
	10600 3800 10800 3800
Text GLabel 15600 5400 2    50   Output ~ 0
CYEN
$Sheet
S 6300 3350 1300 1700
U 5F42F3EF
F0 "Character ROMs" 50
F1 "CharRom.sch" 50
F2 "A0" I L 6300 3450 50 
F3 "A1" I L 6300 3550 50 
F4 "A2" I L 6300 3650 50 
F5 "A3" I L 6300 3750 50 
F6 "A4" I L 6300 3850 50 
F7 "A5" I L 6300 3950 50 
F8 "A6" I L 6300 4050 50 
F9 "A7" I L 6300 4150 50 
F10 "A8" I L 6300 4250 50 
F11 "A9" I L 6300 4350 50 
F12 "~DBIT0~" O R 7600 3450 50 
F13 "~DBIT1~" O R 7600 4150 50 
F14 "~DBIT2~" O R 7600 4050 50 
F15 "~DBIT3~" O R 7600 3950 50 
F16 "~DBIT4~" O R 7600 3850 50 
F17 "~DBIT5~" O R 7600 3750 50 
F18 "~DBIT6~" O R 7600 3650 50 
F19 "~DBIT7~" O R 7600 3550 50 
F20 "A10" I L 6300 4450 50 
F21 "A11" I L 6300 4550 50 
F22 "A12" I L 6300 4650 50 
$EndSheet
Wire Wire Line
	7600 3450 7750 3450
Wire Wire Line
	8900 4650 8800 4650
Text Label 8800 4650 2    50   ~ 0
TPON
Text Label 10600 2750 2    50   ~ 0
TPON
Wire Wire Line
	11100 2750 10600 2750
Text Label 2200 1450 2    50   ~ 0
TPON
Wire Wire Line
	6300 3550 5850 3550
Wire Wire Line
	5850 6250 5450 6250
Wire Wire Line
	5750 3650 6300 3650
Wire Wire Line
	5650 3750 6300 3750
Wire Wire Line
	5650 6450 5450 6450
Wire Wire Line
	7750 3200 7750 3450
Text Label 4100 6150 2    50   ~ 0
TPON
Wire Wire Line
	4100 6150 4550 6150
Wire Wire Line
	2100 3900 2750 3900
Wire Wire Line
	2750 3900 2750 3850
Wire Wire Line
	2750 3850 6300 3850
Wire Wire Line
	2100 4800 2950 4800
Wire Wire Line
	2950 4050 6300 4050
Wire Wire Line
	2100 5700 3150 5700
Wire Wire Line
	3150 4250 6300 4250
Wire Wire Line
	2850 3950 6300 3950
Wire Wire Line
	3050 4150 6300 4150
Wire Wire Line
	3250 4350 6300 4350
Text GLabel 15600 5600 2    50   Output ~ 0
~BLNK~
Text GLabel 11050 6550 2    50   Output ~ 0
~14~
Text GLabel 1300 9350 0    50   Input ~ 0
PRIOR_IN
Text GLabel 1700 9350 2    50   Output ~ 0
PRIOR_OUT
Wire Wire Line
	1300 9350 1700 9350
Text GLabel 13650 8950 1    50   Input ~ 0
R1G
Wire Wire Line
	13650 8950 13650 9100
Text Label 13650 9350 1    50   ~ 0
TPON
$Comp
L Device:R_Network07 R1
U 1 1 5F80CCE1
P 3850 8950
F 0 "R1" H 4238 8996 50  0000 L CNN
F 1 "4.7k" H 4238 8905 50  0000 L CNN
F 2 "Resistor_THT:R_Array_SIP8" V 4325 8950 50  0001 C CNN
F 3 "http://www.vishay.com/docs/31509/csc.pdf" H 3850 8950 50  0001 C CNN
	1    3850 8950
	1    0    0    -1  
$EndComp
$Comp
L Device:R_Network07 R2
U 1 1 5F80D4C3
P 5500 8900
F 0 "R2" H 5888 8946 50  0000 L CNN
F 1 "4.7k" H 5888 8855 50  0000 L CNN
F 2 "Resistor_THT:R_Array_SIP8" V 5975 8900 50  0001 C CNN
F 3 "http://www.vishay.com/docs/31509/csc.pdf" H 5500 8900 50  0001 C CNN
	1    5500 8900
	1    0    0    -1  
$EndComp
$Comp
L power:VCC #PWR0179
U 1 1 5F80E458
P 3550 8750
F 0 "#PWR0179" H 3550 8600 50  0001 C CNN
F 1 "VCC" H 3567 8923 50  0000 C CNN
F 2 "" H 3550 8750 50  0001 C CNN
F 3 "" H 3550 8750 50  0001 C CNN
	1    3550 8750
	1    0    0    -1  
$EndComp
$Comp
L power:VCC #PWR0180
U 1 1 5F80E87B
P 5200 8700
F 0 "#PWR0180" H 5200 8550 50  0001 C CNN
F 1 "VCC" H 5217 8873 50  0000 C CNN
F 2 "" H 5200 8700 50  0001 C CNN
F 3 "" H 5200 8700 50  0001 C CNN
	1    5200 8700
	1    0    0    -1  
$EndComp
Text GLabel 4150 9150 3    50   Output ~ 0
R1H
Text GLabel 3550 9150 3    50   Output ~ 0
R1B
Text GLabel 3650 9150 3    50   Output ~ 0
R1C
Text GLabel 3750 9150 3    50   Output ~ 0
R1D
Text GLabel 3850 9150 3    50   Output ~ 0
R1E
Text GLabel 3950 9150 3    50   Output ~ 0
R1F
Text GLabel 4050 9150 3    50   Output ~ 0
R1G
Text GLabel 5200 9100 3    50   Output ~ 0
R2B
Text GLabel 5300 9100 3    50   Output ~ 0
R2C
Text GLabel 5400 9100 3    50   Output ~ 0
R2D
Text GLabel 5500 9100 3    50   Output ~ 0
R2E
Text GLabel 5600 9100 3    50   Output ~ 0
R2F
Text GLabel 5700 9100 3    50   Output ~ 0
R2G
Text GLabel 5800 9100 3    50   Output ~ 0
R2H
Wire Wire Line
	7600 3550 7850 3550
Wire Wire Line
	7600 3650 7950 3650
Wire Wire Line
	7600 3750 8050 3750
Wire Wire Line
	7600 3850 8150 3850
Wire Wire Line
	7600 3950 8250 3950
Wire Wire Line
	7600 4050 8350 4050
Wire Wire Line
	7600 4150 8450 4150
Wire Wire Line
	7850 3550 7850 3100
Connection ~ 7850 3550
Wire Wire Line
	7850 3550 8900 3550
Wire Wire Line
	7950 3650 7950 3100
Connection ~ 7950 3650
Wire Wire Line
	7950 3650 8900 3650
Wire Wire Line
	8050 3750 8050 3100
Connection ~ 8050 3750
Wire Wire Line
	8050 3750 8900 3750
Wire Wire Line
	8150 3850 8150 3100
Connection ~ 8150 3850
Wire Wire Line
	8150 3850 8900 3850
Wire Wire Line
	8250 3950 8250 3100
Connection ~ 8250 3950
Wire Wire Line
	8250 3950 8900 3950
Wire Wire Line
	8350 4050 8350 3100
Connection ~ 8350 4050
Wire Wire Line
	8350 4050 8900 4050
Wire Wire Line
	8450 4150 8450 3100
Connection ~ 8450 4150
Wire Wire Line
	8450 4150 8900 4150
Text GLabel 7850 3100 1    50   Input ~ 0
R2H
Wire Wire Line
	7750 3200 7750 3100
Connection ~ 7750 3200
Text GLabel 7750 3100 1    50   Input ~ 0
R1F
Text GLabel 8450 3100 1    50   Input ~ 0
R2C
Text GLabel 8350 3100 1    50   Input ~ 0
R2B
Text GLabel 8250 3100 1    50   Input ~ 0
R2D
Text GLabel 8150 3100 1    50   Input ~ 0
R2E
Text GLabel 8050 3100 1    50   Input ~ 0
R2F
Text GLabel 7950 3100 1    50   Input ~ 0
R2G
Text GLabel 2500 7050 1    50   Input ~ 0
R1C
Text GLabel 2500 7650 1    50   Input ~ 0
R1B
$Comp
L Connector:TestPoint TP?
U 1 1 5F4A582C
P 14000 8950
AR Path="/5F4617C4/5F4A582C" Ref="TP?"  Part="1" 
AR Path="/5F4A582C" Ref="TP2"  Part="1" 
F 0 "TP2" V 14100 9100 50  0000 C CNN
F 1 "TPON" V 13900 9050 50  0000 C CNN
F 2 "Connector_PinHeader_2.54mm:PinHeader_1x01_P2.54mm_Vertical" H 14200 8950 50  0001 C CNN
F 3 "~" H 14200 8950 50  0001 C CNN
	1    14000 8950
	1    0    0    -1  
$EndComp
Wire Wire Line
	14000 8950 14000 9100
Wire Wire Line
	14000 9100 13650 9100
Connection ~ 13650 9100
Wire Wire Line
	13650 9100 13650 9350
Wire Wire Line
	1100 6650 1500 6650
Wire Wire Line
	2100 4350 2850 4350
Wire Wire Line
	2850 4350 2850 3950
Wire Wire Line
	2950 4050 2950 4800
Wire Wire Line
	3050 4150 3050 5250
Wire Wire Line
	3050 5250 2100 5250
Wire Wire Line
	3150 4250 3150 5700
Wire Wire Line
	3250 4350 3250 6150
Wire Wire Line
	3250 6150 2100 6150
Wire Wire Line
	6300 4450 3400 4450
Wire Wire Line
	3400 4450 3400 6650
Wire Wire Line
	3400 6650 2100 6650
Wire Wire Line
	3550 4550 3550 7150
Wire Wire Line
	3550 7150 2500 7150
Wire Wire Line
	3700 4650 3700 7750
Wire Wire Line
	3700 7750 2500 7750
NoConn ~ 3850 9150
Wire Wire Line
	8750 2400 8750 4350
Wire Wire Line
	3200 1950 8650 1950
Wire Wire Line
	8650 1950 8650 4450
Wire Wire Line
	1600 1350 2300 1350
Wire Wire Line
	1900 3200 1900 1550
Wire Wire Line
	1900 1550 2300 1550
Wire Wire Line
	1900 3200 7750 3200
$Sheet
S 2300 1250 900  1300
U 5F3DCEA8
F0 "Dot Generator" 50
F1 "DotGen.sch" 50
F2 "~DSPY_CLK~" I L 2300 1350 50 
F3 "~D6_E~" O R 3200 1600 50 
F4 "~D8_E~" O R 3200 1700 50 
F5 "~D2_E~" O R 3200 1500 50 
F6 "~D1_E~" O R 3200 1400 50 
F7 "~D0_E~" O R 3200 1300 50 
F8 "TPON" I L 2300 1450 50 
F9 "SHFT" O R 3200 1950 50 
F10 "~DBIT0~" I L 2300 1550 50 
$EndSheet
Wire Wire Line
	6200 6650 5450 6650
Wire Wire Line
	5450 6850 6200 6850
Wire Wire Line
	5450 6750 11000 6750
$Sheet
S 14450 5300 950  2000
U 5F4E32CC
F0 "Cursor Y Comparator" 50
F1 "CurYCmp.sch" 50
F2 "E" I L 14450 5800 50 
F3 "D" I L 14450 5700 50 
F4 "C" I L 14450 5600 50 
F5 "B" I L 14450 5500 50 
F6 "A" I L 14450 5400 50 
F7 "CYEN" O R 15400 5400 50 
F8 "~CYS~" I L 14450 7050 50 
F9 "~BUS0~" I L 14450 6000 50 
F10 "~BUS1~" I L 14450 6100 50 
F11 "~BUS2~" I L 14450 6200 50 
F12 "CURY0" O R 15400 6500 50 
F13 "CURY1" O R 15400 6600 50 
F14 "CURY2" O R 15400 6700 50 
F15 "CURY3" O R 15400 6800 50 
F16 "CURY4" O R 15400 6900 50 
F17 "~BUS3~" I L 14450 6300 50 
F18 "~BUS4~" I L 14450 6400 50 
F19 "~BUS7~" I L 14450 6500 50 
F20 "PWR_ON" I L 14450 6750 50 
F21 "~BLNK~" O R 15400 5600 50 
$EndSheet
NoConn ~ 15400 6500
NoConn ~ 15400 6600
NoConn ~ 15400 6700
NoConn ~ 15400 6800
NoConn ~ 15400 6900
Wire Wire Line
	15400 5600 15600 5600
Wire Wire Line
	13900 6000 14450 6000
Wire Wire Line
	14450 6100 13900 6100
Wire Wire Line
	13900 6200 14450 6200
Wire Wire Line
	14450 6300 13900 6300
Wire Wire Line
	13900 6400 14450 6400
Wire Wire Line
	14450 6500 13900 6500
Wire Wire Line
	13900 6750 14450 6750
Wire Wire Line
	15400 5400 15600 5400
NoConn ~ 4150 9150
Wire Wire Line
	3300 1700 3300 2400
Connection ~ 3300 1700
Wire Wire Line
	3300 1700 3400 1700
Wire Wire Line
	3300 2400 8750 2400
Wire Wire Line
	5650 3750 5650 6450
Wire Wire Line
	5750 6350 5750 3650
Wire Wire Line
	5850 3550 5850 6250
Wire Wire Line
	5950 6150 5950 3450
Wire Wire Line
	5950 3450 6300 3450
Wire Wire Line
	10900 2650 10900 6550
Wire Wire Line
	10900 6550 5450 6550
Wire Wire Line
	11050 6550 10900 6550
Connection ~ 10900 6550
Wire Wire Line
	7600 7050 7600 7200
Wire Wire Line
	7600 7200 5450 7200
Wire Wire Line
	7600 7050 14450 7050
Wire Wire Line
	7700 7200 7600 7200
Connection ~ 7600 7200
Wire Wire Line
	7700 7300 5450 7300
Wire Wire Line
	4100 7200 4550 7200
Wire Wire Line
	4100 7300 4550 7300
Wire Wire Line
	4100 7400 4550 7400
Wire Wire Line
	4100 7500 4550 7500
Wire Wire Line
	4100 7600 4550 7600
Wire Wire Line
	4100 7800 4550 7800
Wire Wire Line
	4100 7900 4550 7900
Wire Wire Line
	4100 8000 4550 8000
Text Notes 2300 2300 0    50   ~ 0
GAL-code written.\nTested, works.
Text Notes 4650 7050 0    50   ~ 0
GAL-code written.\nTested, works.
Text Notes 14650 5800 0    50   ~ 0
GAL-code written\nNot tested.
Text Notes 11200 3200 0    50   ~ 0
Gal-code written.\nPartly tested ok.
Wire Wire Line
	11100 2950 11000 2950
Wire Wire Line
	11000 2950 11000 6750
Wire Wire Line
	11100 2850 10800 2850
Wire Wire Line
	10800 2850 10800 3800
Wire Wire Line
	12750 3450 12150 3450
Wire Wire Line
	12750 3550 12150 3550
Wire Wire Line
	12750 3650 12150 3650
Wire Wire Line
	13550 5400 13550 2650
Wire Wire Line
	13550 5400 14450 5400
Wire Wire Line
	12150 2650 13550 2650
Wire Wire Line
	13450 5500 13450 2750
Wire Wire Line
	13450 5500 14450 5500
Wire Wire Line
	12150 2750 13450 2750
Wire Wire Line
	13350 5600 13350 2850
Wire Wire Line
	13350 5600 14450 5600
Wire Wire Line
	13250 5700 13250 2950
Wire Wire Line
	13250 5700 14450 5700
Wire Wire Line
	12150 2850 13350 2850
Wire Wire Line
	12150 2950 13250 2950
Wire Wire Line
	13150 5800 13150 3050
Wire Wire Line
	13150 5800 14450 5800
Wire Wire Line
	12150 3050 13150 3050
Wire Wire Line
	12150 3750 12750 3750
Wire Wire Line
	12750 3350 12150 3350
$Comp
L 74xx:74HC04 U22
U 1 1 5F723D33
P 1800 6650
F 0 "U22" H 1800 6850 50  0000 C CNN
F 1 "74S04" H 1850 6450 50  0000 C CNN
F 2 "Package_DIP:DIP-14_W7.62mm_LongPads" H 1800 6650 50  0001 C CNN
F 3 "https://assets.nexperia.com/documents/data-sheet/74HC_HCT04.pdf" H 1800 6650 50  0001 C CNN
	1    1800 6650
	1    0    0    -1  
$EndComp
Wire Wire Line
	1100 6150 1500 6150
$Comp
L Connector:Conn_01x02_Male J1
U 1 1 5F732B60
P 1700 7150
F 0 "J1" H 1808 7331 50  0000 C CNN
F 1 "Conn_01x02_Male" H 1650 6950 50  0000 C CNN
F 2 "Connector_PinHeader_2.54mm:PinHeader_1x02_P2.54mm_Vertical" H 1700 7150 50  0001 C CNN
F 3 "~" H 1700 7150 50  0001 C CNN
	1    1700 7150
	1    0    0    -1  
$EndComp
$Comp
L Connector:Conn_01x02_Male J2
U 1 1 5F73308E
P 1700 7750
F 0 "J2" H 1808 7931 50  0000 C CNN
F 1 "Conn_01x02_Male" H 1600 7550 50  0000 C CNN
F 2 "Connector_PinHeader_2.54mm:PinHeader_1x02_P2.54mm_Vertical" H 1700 7750 50  0001 C CNN
F 3 "~" H 1700 7750 50  0001 C CNN
	1    1700 7750
	1    0    0    -1  
$EndComp
Wire Wire Line
	2500 7150 2500 7050
Connection ~ 2500 7150
Wire Wire Line
	1900 7150 2500 7150
Wire Wire Line
	2500 7650 2500 7750
Connection ~ 2500 7750
Wire Wire Line
	1900 7750 2500 7750
Wire Wire Line
	1900 7250 2000 7250
Wire Wire Line
	2000 7250 2000 7850
Wire Wire Line
	2000 7850 1900 7850
Wire Wire Line
	2000 7850 2000 8200
Connection ~ 2000 7850
$Comp
L power:GND #PWR0103
U 1 1 5F77E66A
P 2000 8200
F 0 "#PWR0103" H 2000 7950 50  0001 C CNN
F 1 "GND" H 2005 8027 50  0000 C CNN
F 2 "" H 2000 8200 50  0001 C CNN
F 3 "" H 2000 8200 50  0001 C CNN
	1    2000 8200
	1    0    0    -1  
$EndComp
Wire Wire Line
	3700 4650 6300 4650
Wire Wire Line
	3550 4550 6300 4550
$Comp
L power:GND #PWR0112
U 1 1 5F637E7C
P 9100 10500
F 0 "#PWR0112" H 9100 10250 50  0001 C CNN
F 1 "GND" H 9105 10327 50  0000 C CNN
F 2 "" H 9100 10500 50  0001 C CNN
F 3 "" H 9100 10500 50  0001 C CNN
	1    9100 10500
	1    0    0    -1  
$EndComp
$Comp
L Connector:TestPoint TP?
U 1 1 5F5D37ED
P 14650 8950
AR Path="/5F4617C4/5F5D37ED" Ref="TP?"  Part="1" 
AR Path="/5F5D37ED" Ref="TP4"  Part="1" 
F 0 "TP4" V 14750 9100 50  0000 C CNN
F 1 "GND" V 14550 9050 50  0000 C CNN
F 2 "Connector_PinHeader_2.54mm:PinHeader_1x01_P2.54mm_Vertical" H 14850 8950 50  0001 C CNN
F 3 "~" H 14850 8950 50  0001 C CNN
	1    14650 8950
	1    0    0    -1  
$EndComp
$Comp
L power:GND #PWR03
U 1 1 5F5D3E03
P 14650 9350
F 0 "#PWR03" H 14650 9100 50  0001 C CNN
F 1 "GND" H 14655 9177 50  0000 C CNN
F 2 "" H 14650 9350 50  0001 C CNN
F 3 "" H 14650 9350 50  0001 C CNN
	1    14650 9350
	1    0    0    -1  
$EndComp
Wire Wire Line
	14650 8950 14650 9350
$EndSCHEMATC
