EESchema Schematic File Version 4
LIBS:DisplayControlPCA_60112-cache
EELAYER 29 0
EELAYER END
$Descr A4 11693 8268
encoding utf-8
Sheet 6 10
Title ""
Date ""
Rev ""
Comp ""
Comment1 ""
Comment2 ""
Comment3 ""
Comment4 ""
$EndDescr
$Comp
L 74xx:74HC04 U22
U 7 1 5F41649A
P 1900 1350
F 0 "U22" H 2130 1396 50  0000 L CNN
F 1 "74S04" H 2130 1305 50  0000 L CNN
F 2 "Package_DIP:DIP-14_W7.62mm_LongPads" H 1900 1350 50  0001 C CNN
F 3 "https://assets.nexperia.com/documents/data-sheet/74HC_HCT04.pdf" H 1900 1350 50  0001 C CNN
	7    1900 1350
	1    0    0    -1  
$EndComp
$Comp
L power:VCC #PWR0129
U 1 1 5F44D531
P 1900 850
F 0 "#PWR0129" H 1900 700 50  0001 C CNN
F 1 "VCC" H 1917 1023 50  0000 C CNN
F 2 "" H 1900 850 50  0001 C CNN
F 3 "" H 1900 850 50  0001 C CNN
	1    1900 850 
	1    0    0    -1  
$EndComp
$Comp
L power:GND #PWR0136
U 1 1 5F45E8FA
P 1900 1850
F 0 "#PWR0136" H 1900 1600 50  0001 C CNN
F 1 "GND" H 1905 1677 50  0000 C CNN
F 2 "" H 1900 1850 50  0001 C CNN
F 3 "" H 1900 1850 50  0001 C CNN
	1    1900 1850
	1    0    0    -1  
$EndComp
$Comp
L 74xx:74LS04 U19
U 7 1 5F48543E
P 1050 1350
F 0 "U19" H 1280 1396 50  0000 L CNN
F 1 "74LS04" H 1280 1305 50  0000 L CNN
F 2 "Package_DIP:DIP-14_W7.62mm_LongPads" H 1050 1350 50  0001 C CNN
F 3 "http://www.ti.com/lit/gpn/sn74LS04" H 1050 1350 50  0001 C CNN
	7    1050 1350
	1    0    0    -1  
$EndComp
$Comp
L power:VCC #PWR0161
U 1 1 5F4887DE
P 1050 850
F 0 "#PWR0161" H 1050 700 50  0001 C CNN
F 1 "VCC" H 1067 1023 50  0000 C CNN
F 2 "" H 1050 850 50  0001 C CNN
F 3 "" H 1050 850 50  0001 C CNN
	1    1050 850 
	1    0    0    -1  
$EndComp
$Comp
L power:GND #PWR0162
U 1 1 5F488B56
P 1050 1850
F 0 "#PWR0162" H 1050 1600 50  0001 C CNN
F 1 "GND" H 1055 1677 50  0000 C CNN
F 2 "" H 1050 1850 50  0001 C CNN
F 3 "" H 1050 1850 50  0001 C CNN
	1    1050 1850
	1    0    0    -1  
$EndComp
$Comp
L power:GND #PWR02
U 1 1 5F5A9F8C
P 700 7500
F 0 "#PWR02" H 700 7250 50  0001 C CNN
F 1 "GND" H 705 7327 50  0000 C CNN
F 2 "" H 700 7500 50  0001 C CNN
F 3 "" H 700 7500 50  0001 C CNN
	1    700  7500
	1    0    0    -1  
$EndComp
$Comp
L power:VCC #PWR01
U 1 1 5F5AAADE
P 700 6900
F 0 "#PWR01" H 700 6750 50  0001 C CNN
F 1 "VCC" H 717 7073 50  0000 C CNN
F 2 "" H 700 6900 50  0001 C CNN
F 3 "" H 700 6900 50  0001 C CNN
	1    700  6900
	1    0    0    -1  
$EndComp
$Comp
L Device:CP1 C1
U 1 1 5F5AB5BD
P 700 7200
F 0 "C1" H 815 7246 50  0000 L CNN
F 1 "39u" H 815 7155 50  0000 L CNN
F 2 "Capacitor_THT:CP_Axial_L11.0mm_D5.0mm_P18.00mm_Horizontal" H 700 7200 50  0001 C CNN
F 3 "~" H 700 7200 50  0001 C CNN
	1    700  7200
	1    0    0    -1  
$EndComp
$Comp
L Device:CP1 C2
U 1 1 5F5ABDCA
P 1050 7200
F 0 "C2" H 1165 7246 50  0000 L CNN
F 1 "39u" H 1165 7155 50  0000 L CNN
F 2 "Capacitor_THT:CP_Axial_L11.0mm_D5.0mm_P18.00mm_Horizontal" H 1050 7200 50  0001 C CNN
F 3 "~" H 1050 7200 50  0001 C CNN
	1    1050 7200
	1    0    0    -1  
$EndComp
$Comp
L Device:CP1 C3
U 1 1 5F5AC17A
P 1400 7200
F 0 "C3" H 1515 7246 50  0000 L CNN
F 1 "39u" H 1515 7155 50  0000 L CNN
F 2 "Capacitor_THT:CP_Axial_L11.0mm_D5.0mm_P18.00mm_Horizontal" H 1400 7200 50  0001 C CNN
F 3 "~" H 1400 7200 50  0001 C CNN
	1    1400 7200
	1    0    0    -1  
$EndComp
$Comp
L Device:C C4
U 1 1 5F5ACE36
P 1750 7200
F 0 "C4" H 1865 7246 50  0000 L CNN
F 1 "10n" H 1865 7155 50  0000 L CNN
F 2 "Capacitor_THT:C_Disc_D5.0mm_W2.5mm_P5.00mm" H 1788 7050 50  0001 C CNN
F 3 "~" H 1750 7200 50  0001 C CNN
	1    1750 7200
	1    0    0    -1  
$EndComp
$Comp
L Device:C C5
U 1 1 5F5AD9EB
P 2100 7200
F 0 "C5" H 2215 7246 50  0000 L CNN
F 1 "10n" H 2215 7155 50  0000 L CNN
F 2 "Capacitor_THT:C_Disc_D5.0mm_W2.5mm_P5.00mm" H 2138 7050 50  0001 C CNN
F 3 "~" H 2100 7200 50  0001 C CNN
	1    2100 7200
	1    0    0    -1  
$EndComp
$Comp
L Device:C C6
U 1 1 5F5B0134
P 2450 7200
F 0 "C6" H 2565 7246 50  0000 L CNN
F 1 "10n" H 2565 7155 50  0000 L CNN
F 2 "Capacitor_THT:C_Disc_D5.0mm_W2.5mm_P5.00mm" H 2488 7050 50  0001 C CNN
F 3 "~" H 2450 7200 50  0001 C CNN
	1    2450 7200
	1    0    0    -1  
$EndComp
$Comp
L Device:C C7
U 1 1 5F5B0559
P 2800 7200
F 0 "C7" H 2915 7246 50  0000 L CNN
F 1 "10n" H 2915 7155 50  0000 L CNN
F 2 "Capacitor_THT:C_Disc_D5.0mm_W2.5mm_P5.00mm" H 2838 7050 50  0001 C CNN
F 3 "~" H 2800 7200 50  0001 C CNN
	1    2800 7200
	1    0    0    -1  
$EndComp
$Comp
L Device:C C8
U 1 1 5F5B0952
P 3150 7200
F 0 "C8" H 3265 7246 50  0000 L CNN
F 1 "10n" H 3265 7155 50  0000 L CNN
F 2 "Capacitor_THT:C_Disc_D5.0mm_W2.5mm_P5.00mm" H 3188 7050 50  0001 C CNN
F 3 "~" H 3150 7200 50  0001 C CNN
	1    3150 7200
	1    0    0    -1  
$EndComp
$Comp
L Device:C C9
U 1 1 5F5B0C50
P 3500 7200
F 0 "C9" H 3615 7246 50  0000 L CNN
F 1 "10n" H 3615 7155 50  0000 L CNN
F 2 "Capacitor_THT:C_Disc_D5.0mm_W2.5mm_P5.00mm" H 3538 7050 50  0001 C CNN
F 3 "~" H 3500 7200 50  0001 C CNN
	1    3500 7200
	1    0    0    -1  
$EndComp
$Comp
L Device:C C10
U 1 1 5F5B0EFB
P 3850 7200
F 0 "C10" H 3965 7246 50  0000 L CNN
F 1 "10n" H 3965 7155 50  0000 L CNN
F 2 "Capacitor_THT:C_Disc_D5.0mm_W2.5mm_P5.00mm" H 3888 7050 50  0001 C CNN
F 3 "~" H 3850 7200 50  0001 C CNN
	1    3850 7200
	1    0    0    -1  
$EndComp
$Comp
L Device:C C11
U 1 1 5F5B126E
P 4200 7200
F 0 "C11" H 4315 7246 50  0000 L CNN
F 1 "10n" H 4315 7155 50  0000 L CNN
F 2 "Capacitor_THT:C_Disc_D5.0mm_W2.5mm_P5.00mm" H 4238 7050 50  0001 C CNN
F 3 "~" H 4200 7200 50  0001 C CNN
	1    4200 7200
	1    0    0    -1  
$EndComp
$Comp
L Device:C C12
U 1 1 5F5B1600
P 4550 7200
F 0 "C12" H 4665 7246 50  0000 L CNN
F 1 "10n" H 4665 7155 50  0000 L CNN
F 2 "Capacitor_THT:C_Disc_D5.0mm_W2.5mm_P5.00mm" H 4588 7050 50  0001 C CNN
F 3 "~" H 4550 7200 50  0001 C CNN
	1    4550 7200
	1    0    0    -1  
$EndComp
$Comp
L Device:C C13
U 1 1 5F5BA425
P 4950 7200
F 0 "C13" H 5065 7246 50  0000 L CNN
F 1 "10n" H 5065 7155 50  0000 L CNN
F 2 "Capacitor_THT:C_Disc_D5.0mm_W2.5mm_P5.00mm" H 4988 7050 50  0001 C CNN
F 3 "~" H 4950 7200 50  0001 C CNN
	1    4950 7200
	1    0    0    -1  
$EndComp
$Comp
L Device:C C14
U 1 1 5F5BA71A
P 5300 7200
F 0 "C14" H 5415 7246 50  0000 L CNN
F 1 "10n" H 5415 7155 50  0000 L CNN
F 2 "Capacitor_THT:C_Disc_D5.0mm_W2.5mm_P5.00mm" H 5338 7050 50  0001 C CNN
F 3 "~" H 5300 7200 50  0001 C CNN
	1    5300 7200
	1    0    0    -1  
$EndComp
$Comp
L Device:C C15
U 1 1 5F5BAC55
P 5650 7200
F 0 "C15" H 5765 7246 50  0000 L CNN
F 1 "10n" H 5765 7155 50  0000 L CNN
F 2 "Capacitor_THT:C_Disc_D5.0mm_W2.5mm_P5.00mm" H 5688 7050 50  0001 C CNN
F 3 "~" H 5650 7200 50  0001 C CNN
	1    5650 7200
	1    0    0    -1  
$EndComp
$Comp
L Device:C C16
U 1 1 5F5BB046
P 6000 7200
F 0 "C16" H 6115 7246 50  0000 L CNN
F 1 "10n" H 6115 7155 50  0000 L CNN
F 2 "Capacitor_THT:C_Disc_D5.0mm_W2.5mm_P5.00mm" H 6038 7050 50  0001 C CNN
F 3 "~" H 6000 7200 50  0001 C CNN
	1    6000 7200
	1    0    0    -1  
$EndComp
Wire Wire Line
	6000 7050 5650 7050
Connection ~ 1050 7050
Wire Wire Line
	1050 7050 700  7050
Connection ~ 1400 7050
Wire Wire Line
	1400 7050 1050 7050
Connection ~ 1750 7050
Wire Wire Line
	1750 7050 1400 7050
Connection ~ 2100 7050
Wire Wire Line
	2100 7050 1750 7050
Connection ~ 2450 7050
Wire Wire Line
	2450 7050 2100 7050
Connection ~ 2800 7050
Wire Wire Line
	2800 7050 2450 7050
Connection ~ 3150 7050
Wire Wire Line
	3150 7050 2800 7050
Connection ~ 3500 7050
Wire Wire Line
	3500 7050 3150 7050
Connection ~ 3850 7050
Wire Wire Line
	3850 7050 3500 7050
Connection ~ 4200 7050
Wire Wire Line
	4200 7050 3850 7050
Connection ~ 4550 7050
Wire Wire Line
	4550 7050 4200 7050
Connection ~ 4950 7050
Wire Wire Line
	4950 7050 4550 7050
Connection ~ 5300 7050
Wire Wire Line
	5300 7050 4950 7050
Connection ~ 5650 7050
Wire Wire Line
	5650 7050 5300 7050
Wire Wire Line
	700  7050 700  6900
Connection ~ 700  7050
Wire Wire Line
	700  7500 700  7350
Wire Wire Line
	700  7350 1050 7350
Connection ~ 700  7350
Connection ~ 1050 7350
Wire Wire Line
	1050 7350 1400 7350
Connection ~ 1400 7350
Wire Wire Line
	1400 7350 1750 7350
Connection ~ 1750 7350
Wire Wire Line
	1750 7350 2100 7350
Connection ~ 2100 7350
Wire Wire Line
	2100 7350 2450 7350
Connection ~ 2450 7350
Wire Wire Line
	2450 7350 2800 7350
Connection ~ 2800 7350
Wire Wire Line
	2800 7350 3150 7350
Connection ~ 3150 7350
Wire Wire Line
	3150 7350 3500 7350
Connection ~ 3500 7350
Wire Wire Line
	3500 7350 3850 7350
Connection ~ 3850 7350
Wire Wire Line
	3850 7350 4200 7350
Connection ~ 4200 7350
Wire Wire Line
	4200 7350 4550 7350
Connection ~ 4550 7350
Wire Wire Line
	4550 7350 4950 7350
Connection ~ 4950 7350
Wire Wire Line
	4950 7350 5300 7350
Connection ~ 5300 7350
Wire Wire Line
	5300 7350 5650 7350
Connection ~ 5650 7350
Wire Wire Line
	5650 7350 6000 7350
$EndSCHEMATC
