 AS V1.42 Beta [Bld 188] - Source File dump_hex_std.asm - Page 1 - 1/4/2021 14:4:12


       1/       0 :                     ; Mini dump program for HP 2640 terminal.
       2/       0 :                     ; This program dumps the ROMs of the 2640 terminal to the serial port as
       3/       0 :                     ; INTEL-HEX. No end of file marker included, otherwise the dump should be fully
       4/       0 :                     ; compliant.
       5/       0 :                     ;
       6/       0 :                     ; The program does absolutely work on 2640A. Tested.
       7/       0 :                     ; It should work on 2640B,C,N and S. They have almost the same hardware and seem
       8/       0 :                     ; to have the same memory layout and amount of ROM.
       9/       0 :                     ; With minor modification it would probably work on a 2644A. The 2644A has a
      10/       0 :                     ; larger ROM space so the CPI 40Q should be replace with CPI 60Q to get all the
      11/       0 :                     ; rom content. Otherwise it should probably work unchanged.
      12/       0 :                     ; No other hardware requirements as it loads into the upper 1K of RAM that is
      13/       0 :                     ; the minimum needed for a 2640 to work at all.
      14/       0 :                     ;
      15/       0 :                     ; The program will NOT work on any of the other 264X series as they all use
      16/       0 :                     ; other processors (8080 and 8085) and some even have banked memory.
      17/       0 :                     ;
      18/       0 :                     ; Assemble with Alfred Arnolds AS using -L -listradix 8
      19/       0 :                     ;
      20/       0 :                             CPU     8008NEW
      21/   36000 :                             ORG     36000Q
      22/   36000 :                     
      23/   36000 : 250                         XRA     A               ; Clear accumulator
      24/   36001 : 350                         MOV     H,A             ; Start with HL pointing to 0
      25/   36002 : 360                         MOV     L,A
      26/   36003 :                     
      27/   36003 : 036 020             ROW:	MVI     D,16            ; Counter for bytes on a row
      28/   36005 : 046 000                     MVI     E,0             ; Clear checksum
      29/   36007 : 026 072                     MVI     C,':'           ; Start code
      30/   36011 : 106 141 074                 CALL    SENDBYTE
      31/   36014 : 303                         MOV     A,D             ; Byte count
      32/   36015 : 106 101 074                 CALL    SENDHEX
      33/   36020 : 305                         MOV     A,H             ; Address MSB
      34/   36021 : 106 101 074                 CALL    SENDHEX
      35/   36024 : 306                         MOV     A,L             ; Address LSB
      36/   36025 : 106 101 074                 CALL    SENDHEX
      37/   36030 : 250                         XRA     A               ; Record type 0 = Data
      38/   36031 : 106 101 074                 CALL    SENDHEX
      39/   36034 :                     
      40/   36034 : 307                 BYTE:	MOV     A,M             ; Get Byte from ROM
      41/   36035 : 106 101 074                 CALL    SENDHEX         ; Send it to serial as hex value
      42/   36040 : 060                         INR     L               ; Point to next location
      43/   36041 : 110 045 074                 JNZ     NEXT            ; If LSB not overflowing skip
      44/   36044 : 050                         INR     H               ; Increment MSB if LSB overflowed
      45/   36045 :                     
      46/   36045 : 031                 NEXT:	DCR     D               ; Decrement bytes to send on row
      47/   36046 : 110 034 074                 JNZ     BYTE            ; Repeat for row
      48/   36051 : 250                         XRA     A               ; Clear Accumulator
      49/   36052 : 224                         SUB     E               ; Checksum is two's complement of sum
      50/   36053 : 106 101 074                 CALL    SENDHEX         ; Send to serial
      51/   36056 :                     
      52/   36056 : 026 015                     MVI     C,13            ; CR
      53/   36060 : 106 141 074                 CALL    SENDBYTE
      54/   36063 : 026 012                     MVI     C,10            ; LF
      55/   36065 : 106 141 074                 CALL    SENDBYTE
      56/   36070 :                     
      57/   36070 : 305                         MOV     A,H             ; Get MSB of byte pointer
      58/   36071 : 074 040                     CPI     40Q             ; Check for out of ROM
      59/   36073 : 160 003 074                 JM      ROW             ; Repeat while in ROM
      60/   36076 : 104 000 000                 JMP     0               ; Reboot
 AS V1.42 Beta [Bld 188] - Source File dump_hex_std.asm - Page 2 - 1/4/2021 14:4:12


      61/   36101 :                     
      62/   36101 :                     ; Sends the value in A as two characters (HEX) over serial
      63/   36101 : 310                 SENDHEX:MOV     B,A             ; Save byte
      64/   36102 : 012                         RRC                     ; Upper nibble to lower
      65/   36103 : 012                         RRC
      66/   36104 : 012                         RRC
      67/   36105 : 012                         RRC
      68/   36106 : 106 121 074                 CALL    SENDDGT         ; Send nibble
      69/   36111 : 301                         MOV     A,B             ; Get byte
      70/   36112 : 106 121 074                 CALL    SENDDGT         ; Send nibble
      71/   36115 : 301                         MOV     A,B             ; Get Byte for checksumming
      72/   36116 : 204                         ADD     E               ; Add old checksum
      73/   36117 : 340                         MOV     E,A             ; Store checksum
      74/   36120 : 007                         RET                     ; Done
      75/   36121 :                     
      76/   36121 :                     ; Sends the value in A as one HEX character over serial
      77/   36121 : 044 017             SENDDGT:ANI     017Q            ; Mask nibble
      78/   36123 : 004 060                     ADI     '0'             ; Add 0 to get 0..?
      79/   36125 : 074 072                     CPI     ':'             ; Check if ascii 0..9
      80/   36127 : 160 134 074                 JM      .A              ; Yes, skip additional add
      81/   36132 : 004 007                     ADI     7               ; Add 7 more to move :..? into A..F
      82/   36134 : 320                 .A:     MOV     C,A             ; Transmits from C
      83/   36135 : 106 141 074                 CALL    SENDBYTE        ; Do the transmit
      84/   36140 : 007                         RET                     ; Done
      85/   36141 :                     
      86/   36141 :                     ; Will wait for transmitter empty. Then transmit character in C
      87/   36141 :                     SENDBYTE:
      88/   36141 : 006 060                     MVI     A,060Q          ; Get Serial port status
      89/   36143 : 101                         IN      0Q
      90/   36144 : 044 002                     ANI     002Q            ; Mask Bit 1 = Transmit Holding Register Empty/*Full
      91/   36146 : 150 141 074                 JZ      SENDBYTE        ; Bit will be 1 if register empty
      92/   36151 : 302                         MOV     A,C             ; Get byte to transmit
      93/   36152 : 161                         OUT     30Q             ; Output byte to UART
      94/   36153 : 007                         RET                     ; Return to caller
      95/   36154 :                     
      96/   36154 :                             END
 AS V1.42 Beta [Bld 188] - Source File dump_hex_std.asm - Page 3 - 1/4/2021 14:4:12


  Symbol Table (* = unused):
  --------------------------

*ARCHITECTURE :                                        "i386-unknown-win32" - |
*BIGENDIAN :                      0 - | *BRANCHEXT :                      0 - |
 BYTE :                       36034 C | *CASESENSITIVE :                  0 - |
*COMPMODE :                       0 - | *CONSTPI :        3.141592653589793 - |
*DATE :                  "1/4/2021" - | *FALSE :                          0 - |
*FULLPMMU :                       1 - | *HAS64 :                          0 - |
*HASDSP :                         0 - | *HASFPU :                         0 - |
*HASPMMU :                        0 - | *INEXTMODE :                      0 - |
*INLWORDMODE :                    0 - | *INMAXMODE :                      0 - |
*INSRCMODE :                      0 - | *INSUPMODE :                      0 - |
*LISTON :                         1 - | *MACEXP :                         7 - |
*MOMCPU :                   2000216 - | *MOMCPUNAME :             "8008NEW" - |
*NESTMAX :                      400 - |  NEXT :                       36045 C |
*PACKING :                        0 - | *PADDING :                        1 - |
*RELAXED :                        0 - |  ROW :                        36003 C |
 SENDBYTE :                   36141 C |  SENDDGT :                    36121 C |
 SENDDGT.A :                  36134 C |  SENDHEX :                    36101 C |
*TIME :                   "14:4:12" - | *TRUE :                           1 - |
*VERSION :                    12057 - | *Z80SYNTAX :                      0 - |

     37 symbols
     30 unused symbols

 AS V1.42 Beta [Bld 188] - Source File dump_hex_std.asm - Page 4 - 1/4/2021 14:4:12


  Code Pages:
  ----------

STANDARD (0 changed characters)

1 code page

0.01 seconds assembly time

     96 lines source file
      2 passes
      0 errors
      0 warnings
