:101800002B2BB79A2D2DBE9A3039C59A4343739B23
:101810005252879B59597D9B6363739B7272879B5E
:1018200079797D9B2020F68E007F029A41454C18E5
:1018300061644C1830370D9D0A0AF68E0D0DF68E38
:101840001313F68E2020F68E007F0080D61CC51C58
:101850001F1DEA1C031D369B3E00A8076164641827
:10186000007F029A541BB11C021A661E404FB688B4
:10187000007F029A4043749E007F029A0D0DFC8DFA
:101880001B1B4C9B5A5A6699007F888D36DB449609
:10189000182E3F36E231DF30EFF3070D21F4EBC7AE
:1018A0003CD060B118DF31E7C446981A48B318F449
:1018B000EBC7B82E3F07D036E32E3FC3B068C11840
:1018C00087F836E1FA30F936FF2EFF11067F77F9F7
:1018D00031FA063F77C52E3F070E10468D1E36B4EF
:1018E000C780502619602319441E19368CC70A4038
:1018F000C10736A1FA46FB1844C40736B4C72420F2
:101900006AB2070E08464B1A48121936B4C78050FF
:10191000261936B4C78060231924406AB20706012D
:1019200044271946B207C1B136B7B7F8443B1B4646
:10193000781944C40736A02E3FC734805307368C2D
:10194000C724013C010B3693A70736A0C70A0ED95E
:10195000402E1A466F1944C10736BA3E7C303E18F5
:1019600046F10744151A46880D36AAC73C1B0B469C
:10197000021A44F40746B80736B73E0046B20736A7
:10198000863E33313E330736B6C70A0330C70A6096
:10199000A3190A6098170A603E1C0A60111B0A60AE
:1019A00004160736B7C724FEF844D90736012E9F20
:1019B0000D2948B0193148AE192E3F0736B6C7B0C9
:1019C00070C40746BB0768C407B070DB19467608C9
:1019D00048E319240348C31944C40746EB076A02C5
:1019E0001A167F2E3F060146401B44CA0736D13ED9
:1019F0000036D1D736F53EFF46B80A36F52E3F3EC3
:101A0000000736052E00C730CF36BA2E3FF830F922
:101A100006F7468F1E36B93E000736B606200EEC96
:101A200044291A06020ED136A0A7682E1A08369C41
:101A3000F944C70706100ED744271A06FD36A0A79B
:101A4000F85307060236A0B7F853073693C72401A8
:101A50002B36B4C72408072E3F061044EE0736D1B4
:101A6000CF0933F90736BA4696180DC297708F1A08
:101A7000C830C7BA70901A30E730C7B070871AE81C
:101A8000C10284F0E730C736FC2E3FFC30F8073047
:101A9000303030446A1A31C7240F2C0F07060D4628
:101AA000CA1F368FC70A03060A44CA1F46D4154404
:101AB000C10736B6B7F80736883E0144F60E3688B9
:101AC0003EFF44F60E36D4C7240F3689160A441654
:101AD0001D36DB46FC1A36D63E0046591A2B36AC6C
:101AE0003E010736DB44EF1A36D244F11A36F12EA6
:101AF0003FE730DF0736D244FC1A36F12E3FFC3088
:101B0000FB0736F32E3FC7B00736ED2E3FF830F90E
:101B10000706F746811E46241B36A1C7247F46CA06
:101B20001F44D007061B44CA1F36B5C724400B0606
:101B3000AF36B5A7F807064046401B4656180610B4
:101B400036B5B7F8072E3F36ACC7B00746880D3616
:101B5000843E000736BA3E00303E1836D0C730CF3C
:101B600036CBF8303EFF30F9A83688F830F830F838
:101B700044F60E1E4F26CD36D1CF44921B1E17269B
:101B8000CB36D0CF44921B1EFF26CC36D0C736E3CF
:101B900087C846F41B36D4C7242048681B36CCC7F8
:101BA000B050AD1B31C7C036D0F844B51B36ADC7F9
:101BB000B00B46C61B36CDC736D1F846B30A2B3616
:101BC000D53E2044620936CCC736E39736D0608CC8
:101BD0000F3C18F8233E171417D036F7FA46650F56
:101BE00036F72E3FC7922BF8160046B80A0B36F789
:101BF000D744DD1B368AC7B03688C768061CB0508C
:101C00001A1CA8441B1C3689B0C170251C481E1C18
:101C1000C718681B1CBB601B1C19C3F4F80787405E
:101C2000111C441A1C97401B1C44021C060446B29B
:101C30001A44391C06FB468F1E0E0444DB1806FBB3
:101C400046811E46241B062646CA1F066146CA1F39
:101C500036D1DF467B1C066346CA1F36B6C724044E
:101C600036D048721CC736E387D8467B1C065244E0
:101C70001E1BDF467B1C0659441E1B166446891C2E
:101C8000160A46891CC344C61FC3262F2092408CC7
:101C90001C82D8C444CA1F0EC0449E1C0EC14659A3
:101CA0001A0BC136D544C10836AC3E0006EF443DA0
:101CB0001A16A60EDF46C71836BA3E2C303E183626
:101CC000A2A8F830F836D4C7242068021A36A4A88F
:101CD000F830F844F60E36A4E730DF36A7FC30FBC8
:101CE00036A2160146351D44C51C36A4E736A74664
:101CF0009618FC1E0036A72E3FD710FA48E01C307D
:101D000044F91C06C07736A63E4444A63F36D4C7E5
:101D1000240736A41608E01E0046351D44F60E06BC
:101D20000846401B36A4C730CF36A2AFD0C130AF73
:101D3000B268C51C000DC784E030C78BD83111488C
:101D4000351DFC30FBA80736002E38CE16FFF9C72C
:101D5000B948611DFAC7BA48611DC51404E8444E6C
:101D60001D063C95E006C077360246AE19A816CB94
:101D700036FA2E3FF8311148741D36B3FC061E4367
:101D800036B4F836B23EFF36042E00C730CF30D717
:101D900036BA2E3FF930FA36B8F836FB3E4446756F
:101DA000192EFF062F140F340F1403C8DDF03E0068
:101DB00036F92E3F1401F830FB140AF0EB140260E0
:101DC000CA1DFB31F8140E44BB1D192148C21D3E2B
:101DD000FD0831F946740C46221E30303E001402D4
:101DE000F03ECC36FE460B1B36D2F830F9040136F5
:101DF000DB1604F830F9301148F31DA85336B1F85A
:101E000006104DB0680F1E06124D3E01441F1E06FF
:101E10003045B0681F1E065045241F12553E02442F
:101E2000C107340F140231FD31F8F03ECE313E00CF
:101E300007065C0E1844F10E36B4C7242048000093
:101E400046A81C46020E46C8130D463B1A36BF2E46
:101E50003F160A0DA8F8301148531E36B7F831C79F
:101E60002480F8440010066C0E1844F10E06740E1F
:101E70001844F10E36D5C724030202020236B8F820
:101E80000736B7A7F80E0048DB1846291B06FE36B2
:101E9000B6A7F8070E0244DB18067F53062046401B
:101EA0001B2E00F5D526200DC2870C00D03048A788
:101EB0001E282148A71E10169B487F1F06C0773694
:101EC000B32E3FE736000DC7D82CFFF8BFFB487D87
:101ED0001FC397487D1F3048C61E292148C61E775C
:101EE00006FF5336F82E3F06C01410F836A93E0000
:101EF000463E1046100E36F8C746B91F36A92E3F8B
:101F0000C736D5F824073C0448111F46880D46887B
:101F10000D46850D36A9C70401F83C4068F01EB097
:101F200050FC1E46FC0D36F8C73C8048E91E36A919
:101F3000F846100E36A92E3FC7144036D5F8468510
:101F40000D36A9C70401F836D53C9068551FF846F0
:101F5000B60844341F3E8046B60846880D46880DB4
:101F6000060446401B44A51746FC0D46FC0D06DF43
:101F700046311B464F1B36A0C75344CD07169F461C
:101F8000AE1F4800000EDF46C718448A1FCE4C49DA
:101F900041462054534554204D4F5298DF4152CE74
:101FA000524544414F4C92DF544E495250822E3F8D
:101FB000068136B5A707C1348036BE3E0F36D544FC
:101FC000C1080A0A0A0A240F043036D4F8C836B504
:101FD000C7242048820D36E6FA31FC31FB368CC727
:101FE0000A62B50736E6D731E731DF0726204465B8
:101FF0001D000000000000000000000000AE754E53
:00000001FF
